%YAML 1.1
%TAG !u! tag:unity3d.com,2011:
--- !u!74 &7400000
AnimationClip:
  m_ObjectHideFlags: 0
  m_PrefabParentObject: {fileID: 0}
  m_PrefabInternal: {fileID: 0}
  m_Name: Intro6Anim
  serializedVersion: 6
  m_Legacy: 1
  m_Compressed: 0
  m_UseHighQualityCurve: 1
  m_RotationCurves:
  - curve:
      serializedVersion: 2
      m_Curve:
      - serializedVersion: 2
        time: 0
        value: {x: 0, y: 0.7701293, z: 0, w: 0.63788784}
        inSlope: {x: 0, y: 0.012088716, z: 0, w: -0.014651716}
        outSlope: {x: 0, y: 0.012088716, z: 0, w: -0.014651716}
        tangentMode: 0
      - serializedVersion: 2
        time: 0.2
        value: {x: 0, y: 0.77254707, z: 0, w: 0.6349575}
        inSlope: {x: 0, y: 0.023210496, z: 0, w: -0.028445125}
        outSlope: {x: 0, y: 0.023210496, z: 0, w: -0.028445125}
        tangentMode: 0
      - serializedVersion: 2
        time: 0.4
        value: {x: 0, y: 0.7794135, z: 0, w: 0.6265098}
        inSlope: {x: 0, y: 0.04382834, z: 0, w: -0.054879185}
        outSlope: {x: 0, y: 0.04382834, z: 0, w: -0.054879185}
        tangentMode: 0
      - serializedVersion: 2
        time: 0.6
        value: {x: 0, y: 0.7900784, z: 0, w: 0.6130058}
        inSlope: {x: 0, y: 0.061032027, z: 0, w: -0.07911429}
        outSlope: {x: 0, y: 0.061032027, z: 0, w: -0.07911429}
        tangentMode: 0
      - serializedVersion: 2
        time: 0.8
        value: {x: 0, y: 0.80382633, z: 0, w: 0.5948641}
        inSlope: {x: 0, y: 0.074576296, z: 0, w: -0.101279475}
        outSlope: {x: 0, y: 0.074576296, z: 0, w: -0.101279475}
        tangentMode: 0
      - serializedVersion: 2
        time: 1
        value: {x: 0, y: 0.8199089, z: 0, w: 0.57249403}
        inSlope: {x: 0, y: 0.08436858, z: 0, w: -0.12134953}
        outSlope: {x: 0, y: 0.08436858, z: 0, w: -0.12134953}
        tangentMode: 0
      - serializedVersion: 2
        time: 1.2
        value: {x: 0, y: 0.83757377, z: 0, w: 0.54632425}
        inSlope: {x: 0, y: 0.09045658, z: 0, w: -0.13917443}
        outSlope: {x: 0, y: 0.09045658, z: 0, w: -0.13917443}
        tangentMode: 0
      - serializedVersion: 2
        time: 1.4000001
        value: {x: 0, y: 0.85609156, z: 0, w: 0.51682425}
        inSlope: {x: 0, y: 0.09301645, z: 0, w: -0.15451136}
        outSlope: {x: 0, y: 0.09301645, z: 0, w: -0.15451136}
        tangentMode: 0
      - serializedVersion: 2
        time: 1.6000001
        value: {x: 0, y: 0.87478036, z: 0, w: 0.4845197}
        inSlope: {x: 0, y: 0.09234173, z: 0, w: -0.16705918}
        outSlope: {x: 0, y: 0.09234173, z: 0, w: -0.16705918}
        tangentMode: 0
      - serializedVersion: 2
        time: 1.8000002
        value: {x: 0, y: 0.89302826, z: 0, w: 0.45000055}
        inSlope: {x: 0, y: 0.08882908, z: 0, w: -0.17649236}
        outSlope: {x: 0, y: 0.08882908, z: 0, w: -0.17649236}
        tangentMode: 0
      - serializedVersion: 2
        time: 2.0000002
        value: {x: 0, y: 0.910312, z: 0, w: 0.41392273}
        inSlope: {x: 0, y: 0.08295847, z: 0, w: -0.18249142}
        outSlope: {x: 0, y: 0.08295847, z: 0, w: -0.18249142}
        tangentMode: 0
      - serializedVersion: 2
        time: 2.2000003
        value: {x: 0, y: 0.92621166, z: 0, w: 0.37700397}
        inSlope: {x: 0, y: 0.07526977, z: 0, w: -0.18476869}
        outSlope: {x: 0, y: 0.07526977, z: 0, w: -0.18476869}
        tangentMode: 0
      - serializedVersion: 2
        time: 2.4000003
        value: {x: 0, y: 0.9404199, z: 0, w: 0.34001523}
        inSlope: {x: 0, y: 0.06633519, z: 0, w: -0.18308754}
        outSlope: {x: 0, y: 0.06633519, z: 0, w: -0.18308754}
        tangentMode: 0
      - serializedVersion: 2
        time: 2.6000004
        value: {x: 0, y: 0.95274574, z: 0, w: 0.30376893}
        inSlope: {x: 0, y: 0.05672677, z: 0, w: -0.17727348}
        outSlope: {x: 0, y: 0.05672677, z: 0, w: -0.17727348}
        tangentMode: 0
      - serializedVersion: 2
        time: 2.8000004
        value: {x: 0, y: 0.9631106, z: 0, w: 0.26910582}
        inSlope: {x: 0, y: 0.046982158, z: 0, w: -0.1672193}
        outSlope: {x: 0, y: 0.046982158, z: 0, w: -0.1672193}
        tangentMode: 0
      - serializedVersion: 2
        time: 3.0000005
        value: {x: 0, y: 0.9715386, z: 0, w: 0.2368812}
        inSlope: {x: 0, y: 0.03757044, z: 0, w: -0.15288159}
        outSlope: {x: 0, y: 0.03757044, z: 0, w: -0.15288159}
        tangentMode: 0
      - serializedVersion: 2
        time: 3.2000005
        value: {x: 0, y: 0.9781388, z: 0, w: 0.20795317}
        inSlope: {x: 0, y: 0.028855197, z: 0, w: -0.13427068}
        outSlope: {x: 0, y: 0.028855197, z: 0, w: -0.13427068}
        tangentMode: 0
      - serializedVersion: 2
        time: 3.4000006
        value: {x: 0, y: 0.9830807, z: 0, w: 0.18317291}
        inSlope: {x: 0, y: 0.021061894, z: 0, w: -0.11143786}
        outSlope: {x: 0, y: 0.021061894, z: 0, w: -0.11143786}
        tangentMode: 0
      - serializedVersion: 2
        time: 3.6000006
        value: {x: 0, y: 0.98656356, z: 0, w: 0.16337802}
        inSlope: {x: 0, y: 0.014244612, z: 0, w: -0.08445999}
        outSlope: {x: 0, y: 0.014244612, z: 0, w: -0.08445999}
        tangentMode: 0
      - serializedVersion: 2
        time: 3.8000007
        value: {x: 0, y: 0.98877853, z: 0, w: 0.14938891}
        inSlope: {x: 0, y: 0.008255244, z: 0, w: -0.053427823}
        outSlope: {x: 0, y: 0.008255244, z: 0, w: -0.053427823}
        tangentMode: 0
      - serializedVersion: 2
        time: 4.0000005
        value: {x: 0, y: 0.98986566, z: 0, w: 0.14200689}
        inSlope: {x: 0, y: 0.00403494, z: 0, w: -0.027759884}
        outSlope: {x: 0, y: 0.00403494, z: 0, w: -0.027759884}
        tangentMode: 0
      - serializedVersion: 2
        time: 4.2000003
        value: {x: 0, y: 0.9903925, z: 0, w: 0.13828497}
        inSlope: {x: 0, y: 0.0025342428, z: 0, w: -0.018137041}
        outSlope: {x: 0, y: 0.0025342428, z: 0, w: -0.018137041}
        tangentMode: 0
      - serializedVersion: 2
        time: 4.4
        value: {x: 0, y: 0.99087936, z: 0, w: 0.13475208}
        inSlope: {x: 0, y: 0.0023394846, z: 0, w: -0.017190965}
        outSlope: {x: 0, y: 0.0023394846, z: 0, w: -0.017190965}
        tangentMode: 0
      - serializedVersion: 2
        time: 4.6
        value: {x: 0, y: 0.9913283, z: 0, w: 0.13140859}
        inSlope: {x: 0, y: 0.0021547098, z: 0, w: -0.016243286}
        outSlope: {x: 0, y: 0.0021547098, z: 0, w: -0.016243286}
        tangentMode: 0
      - serializedVersion: 2
        time: 4.7999997
        value: {x: 0, y: 0.99174124, z: 0, w: 0.12825477}
        inSlope: {x: 0, y: 0.001979323, z: 0, w: -0.0152942315}
        outSlope: {x: 0, y: 0.001979323, z: 0, w: -0.0152942315}
        tangentMode: 0
      - serializedVersion: 2
        time: 4.9999995
        value: {x: 0, y: 0.99212, z: 0, w: 0.1252909}
        inSlope: {x: 0, y: 0.001812877, z: 0, w: -0.014343591}
        outSlope: {x: 0, y: 0.001812877, z: 0, w: -0.014343591}
        tangentMode: 0
      - serializedVersion: 2
        time: 5.1999993
        value: {x: 0, y: 0.9924664, z: 0, w: 0.12251734}
        inSlope: {x: 0, y: 0.0016546266, z: 0, w: -0.013392078}
        outSlope: {x: 0, y: 0.0016546266, z: 0, w: -0.013392078}
        tangentMode: 0
      - serializedVersion: 2
        time: 5.399999
        value: {x: 0, y: 0.9927819, z: 0, w: 0.119934075}
        inSlope: {x: 0, y: 0.0015039756, z: 0, w: -0.012439501}
        outSlope: {x: 0, y: 0.0015039756, z: 0, w: -0.012439501}
        tangentMode: 0
      - serializedVersion: 2
        time: 5.599999
        value: {x: 0, y: 0.993068, z: 0, w: 0.117541544}
        inSlope: {x: 0, y: 0.0013606264, z: 0, w: -0.011485975}
        outSlope: {x: 0, y: 0.0013606264, z: 0, w: -0.011485975}
        tangentMode: 0
      - serializedVersion: 2
        time: 5.7999988
        value: {x: 0, y: 0.9933261, z: 0, w: 0.11533969}
        inSlope: {x: 0, y: 0.0012238335, z: 0, w: -0.010531591}
        outSlope: {x: 0, y: 0.0012238335, z: 0, w: -0.010531591}
        tangentMode: 0
      - serializedVersion: 2
        time: 5.9999986
        value: {x: 0, y: 0.9935575, z: 0, w: 0.11332891}
        inSlope: {x: 0, y: 0.0010931501, z: 0, w: -0.009576166}
        outSlope: {x: 0, y: 0.0010931501, z: 0, w: -0.009576166}
        tangentMode: 0
      - serializedVersion: 2
        time: 6.1999984
        value: {x: 0, y: 0.9937634, z: 0, w: 0.111509226}
        inSlope: {x: 0, y: 0.0009681294, z: 0, w: -0.0086206645}
        outSlope: {x: 0, y: 0.0009681294, z: 0, w: -0.0086206645}
        tangentMode: 0
      - serializedVersion: 2
        time: 6.399998
        value: {x: 0, y: 0.99394476, z: 0, w: 0.10988065}
        inSlope: {x: 0, y: 0.0008480259, z: 0, w: -0.0076642893}
        outSlope: {x: 0, y: 0.0008480259, z: 0, w: -0.0076642893}
        tangentMode: 0
      - serializedVersion: 2
        time: 6.599998
        value: {x: 0, y: 0.9941026, z: 0, w: 0.10844351}
        inSlope: {x: 0, y: 0.0007323928, z: 0, w: -0.0067070937}
        outSlope: {x: 0, y: 0.0007323928, z: 0, w: -0.0067070937}
        tangentMode: 0
      - serializedVersion: 2
        time: 6.799998
        value: {x: 0, y: 0.9942377, z: 0, w: 0.10719781}
        inSlope: {x: 0, y: 0.00062048493, z: 0, w: -0.005749749}
        outSlope: {x: 0, y: 0.00062048493, z: 0, w: -0.005749749}
        tangentMode: 0
      - serializedVersion: 2
        time: 6.9999976
        value: {x: 0, y: 0.9943508, z: 0, w: 0.106143616}
        inSlope: {x: 0, y: 0.00051200436, z: 0, w: -0.004792069}
        outSlope: {x: 0, y: 0.00051200436, z: 0, w: -0.004792069}
        tangentMode: 0
      - serializedVersion: 2
        time: 7.1999974
        value: {x: 0, y: 0.9944425, z: 0, w: 0.10528099}
        inSlope: {x: 0, y: 0.00040635507, z: 0, w: -0.0038337745}
        outSlope: {x: 0, y: 0.00040635507, z: 0, w: -0.0038337745}
        tangentMode: 0
      - serializedVersion: 2
        time: 7.399997
        value: {x: 0, y: 0.99451333, z: 0, w: 0.10461011}
        inSlope: {x: 0, y: 0.0003027919, z: 0, w: -0.0028758338}
        outSlope: {x: 0, y: 0.0003027919, z: 0, w: -0.0028758338}
        tangentMode: 0
      - serializedVersion: 2
        time: 7.599997
        value: {x: 0, y: 0.99456364, z: 0, w: 0.104130656}
        inSlope: {x: 0, y: 0.00020086784, z: 0, w: -0.0019174088}
        outSlope: {x: 0, y: 0.00020086784, z: 0, w: -0.0019174088}
        tangentMode: 0
      - serializedVersion: 2
        time: 7.799997
        value: {x: 0, y: 0.9945937, z: 0, w: 0.103843145}
        inSlope: {x: 0, y: 0.00010013548, z: 0, w: -0.00095857}
        outSlope: {x: 0, y: 0.00010013548, z: 0, w: -0.00095857}
        tangentMode: 0
      - serializedVersion: 2
        time: 8
        value: {x: 0, y: 0.9946037, z: 0, w: 0.10374723}
        inSlope: {x: 0, y: 0.000050067112, z: 0, w: -0.00047958634}
        outSlope: {x: 0, y: 0.000050067112, z: 0, w: -0.00047958634}
        tangentMode: 0
      m_PreInfinity: 2
      m_PostInfinity: 2
      m_RotationOrder: 4
    path: 
  m_CompressedRotationCurves: []
  m_EulerCurves: []
  m_PositionCurves:
  - curve:
      serializedVersion: 2
      m_Curve:
      - serializedVersion: 2
        time: 0
        value: {x: -5.8, y: 28.4, z: -31.1}
        inSlope: {x: 0, y: 0, z: 0}
        outSlope: {x: 0, y: 0, z: 0}
        tangentMode: 0
      - serializedVersion: 2
        time: 4
        value: {x: 21.31, y: 25.41, z: -36.02}
        inSlope: {x: 0.75250006, y: -0.20549963, z: -1.0800002}
        outSlope: {x: 0.75250006, y: -0.20549963, z: -1.0800002}
        tangentMode: 0
      - serializedVersion: 2
        time: 8
        value: {x: 22.815, y: 24.999, z: -39.74}
        inSlope: {x: 0, y: 0, z: 0}
        outSlope: {x: 0, y: 0, z: 0}
        tangentMode: 0
      m_PreInfinity: 2
      m_PostInfinity: 2
      m_RotationOrder: 4
    path: 
  m_ScaleCurves: []
  m_FloatCurves: []
  m_PPtrCurves: []
  m_SampleRate: 5
  m_WrapMode: 0
  m_Bounds:
    m_Center: {x: 0, y: 0, z: 0}
    m_Extent: {x: 0, y: 0, z: 0}
  m_ClipBindingConstant:
    genericBindings: []
    pptrCurveMapping: []
  m_AnimationClipSettings:
    serializedVersion: 2
    m_AdditiveReferencePoseClip: {fileID: 0}
    m_AdditiveReferencePoseTime: 0
    m_StartTime: 0
    m_StopTime: 8
    m_OrientationOffsetY: 0
    m_Level: 0
    m_CycleOffset: 0
    m_HasAdditiveReferencePose: 0
    m_LoopTime: 1
    m_LoopBlend: 0
    m_LoopBlendOrientation: 0
    m_LoopBlendPositionY: 0
    m_LoopBlendPositionXZ: 0
    m_KeepOriginalOrientation: 0
    m_KeepOriginalPositionY: 1
    m_KeepOriginalPositionXZ: 0
    m_HeightFromFeet: 0
    m_Mirror: 0
  m_EditorCurves:
  - curve:
      serializedVersion: 2
      m_Curve:
      - serializedVersion: 2
        time: 0
        value: -5.8
        inSlope: 0
        outSlope: 0
        tangentMode: 136
      - serializedVersion: 2
        time: 4
        value: 21.31
        inSlope: 0.75250006
        outSlope: 0.75250006
        tangentMode: 136
      - serializedVersion: 2
        time: 8
        value: 22.815
        inSlope: 0
        outSlope: 0
        tangentMode: 136
      m_PreInfinity: 2
      m_PostInfinity: 2
      m_RotationOrder: 4
    attribute: m_LocalPosition.x
    path: 
    classID: 4
    script: {fileID: 0}
  - curve:
      serializedVersion: 2
      m_Curve:
      - serializedVersion: 2
        time: 0
        value: 28.4
        inSlope: 0
        outSlope: 0
        tangentMode: 136
      - serializedVersion: 2
        time: 4
        value: 25.41
        inSlope: -0.20549963
        outSlope: -0.20549963
        tangentMode: 136
      - serializedVersion: 2
        time: 8
        value: 24.999
        inSlope: 0
        outSlope: 0
        tangentMode: 136
      m_PreInfinity: 2
      m_PostInfinity: 2
      m_RotationOrder: 4
    attribute: m_LocalPosition.y
    path: 
    classID: 4
    script: {fileID: 0}
  - curve:
      serializedVersion: 2
      m_Curve:
      - serializedVersion: 2
        time: 0
        value: -31.1
        inSlope: 0
        outSlope: 0
        tangentMode: 136
      - serializedVersion: 2
        time: 4
        value: -36.02
        inSlope: -1.0800002
        outSlope: -1.0800002
        tangentMode: 136
      - serializedVersion: 2
        time: 8
        value: -39.74
        inSlope: 0
        outSlope: 0
        tangentMode: 136
      m_PreInfinity: 2
      m_PostInfinity: 2
      m_RotationOrder: 4
    attribute: m_LocalPosition.z
    path: 
    classID: 4
    script: {fileID: 0}
  - curve:
      serializedVersion: 2
      m_Curve:
      - serializedVersion: 2
        time: 0
        value: 0
        inSlope: 0
        outSlope: 0
        tangentMode: 0
      - serializedVersion: 2
        time: 0.2
        value: 0
        inSlope: 0
        outSlope: 0
        tangentMode: 0
      - serializedVersion: 2
        time: 0.4
        value: 0
        inSlope: 0
        outSlope: 0
        tangentMode: 0
      - serializedVersion: 2
        time: 0.6
        value: 0
        inSlope: 0
        outSlope: 0
        tangentMode: 0
      - serializedVersion: 2
        time: 0.8
        value: 0
        inSlope: 0
        outSlope: 0
        tangentMode: 0
      - serializedVersion: 2
        time: 1
        value: 0
        inSlope: 0
        outSlope: 0
        tangentMode: 0
      - serializedVersion: 2
        time: 1.2
        value: 0
        inSlope: 0
        outSlope: 0
        tangentMode: 0
      - serializedVersion: 2
        time: 1.4000001
        value: 0
        inSlope: 0
        outSlope: 0
        tangentMode: 0
      - serializedVersion: 2
        time: 1.6000001
        value: 0
        inSlope: 0
        outSlope: 0
        tangentMode: 0
      - serializedVersion: 2
        time: 1.8000002
        value: 0
        inSlope: 0
        outSlope: 0
        tangentMode: 0
      - serializedVersion: 2
        time: 2.0000002
        value: 0
        inSlope: 0
        outSlope: 0
        tangentMode: 0
      - serializedVersion: 2
        time: 2.2000003
        value: 0
        inSlope: 0
        outSlope: 0
        tangentMode: 0
      - serializedVersion: 2
        time: 2.4000003
        value: 0
        inSlope: 0
        outSlope: 0
        tangentMode: 0
      - serializedVersion: 2
        time: 2.6000004
        value: 0
        inSlope: 0
        outSlope: 0
        tangentMode: 0
      - serializedVersion: 2
        time: 2.8000004
        value: 0
        inSlope: 0
        outSlope: 0
        tangentMode: 0
      - serializedVersion: 2
        time: 3.0000005
        value: 0
        inSlope: 0
        outSlope: 0
        tangentMode: 0
      - serializedVersion: 2
        time: 3.2000005
        value: 0
        inSlope: 0
        outSlope: 0
        tangentMode: 0
      - serializedVersion: 2
        time: 3.4000006
        value: 0
        inSlope: 0
        outSlope: 0
        tangentMode: 0
      - serializedVersion: 2
        time: 3.6000006
        value: 0
        inSlope: 0
        outSlope: 0
        tangentMode: 0
      - serializedVersion: 2
        time: 3.8000007
        value: 0
        inSlope: 0
        outSlope: 0
        tangentMode: 0
      - serializedVersion: 2
        time: 4.0000005
        value: 0
        inSlope: 0
        outSlope: 0
        tangentMode: 0
      - serializedVersion: 2
        time: 4.2000003
        value: 0
        inSlope: 0
        outSlope: 0
        tangentMode: 0
      - serializedVersion: 2
        time: 4.4
        value: 0
        inSlope: 0
        outSlope: 0
        tangentMode: 0
      - serializedVersion: 2
        time: 4.6
        value: 0
        inSlope: 0
        outSlope: 0
        tangentMode: 0
      - serializedVersion: 2
        time: 4.7999997
        value: 0
        inSlope: 0
        outSlope: 0
        tangentMode: 0
      - serializedVersion: 2
        time: 4.9999995
        value: 0
        inSlope: 0
        outSlope: 0
        tangentMode: 0
      - serializedVersion: 2
        time: 5.1999993
        value: 0
        inSlope: 0
        outSlope: 0
        tangentMode: 0
      - serializedVersion: 2
        time: 5.399999
        value: 0
        inSlope: 0
        outSlope: 0
        tangentMode: 0
      - serializedVersion: 2
        time: 5.599999
        value: 0
        inSlope: 0
        outSlope: 0
        tangentMode: 0
      - serializedVersion: 2
        time: 5.7999988
        value: 0
        inSlope: 0
        outSlope: 0
        tangentMode: 0
      - serializedVersion: 2
        time: 5.9999986
        value: 0
        inSlope: 0
        outSlope: 0
        tangentMode: 0
      - serializedVersion: 2
        time: 6.1999984
        value: 0
        inSlope: 0
        outSlope: 0
        tangentMode: 0
      - serializedVersion: 2
        time: 6.399998
        value: 0
        inSlope: 0
        outSlope: 0
        tangentMode: 0
      - serializedVersion: 2
        time: 6.599998
        value: 0
        inSlope: 0
        outSlope: 0
        tangentMode: 0
      - serializedVersion: 2
        time: 6.799998
        value: 0
        inSlope: 0
        outSlope: 0
        tangentMode: 0
      - serializedVersion: 2
        time: 6.9999976
        value: 0
        inSlope: 0
        outSlope: 0
        tangentMode: 0
      - serializedVersion: 2
        time: 7.1999974
        value: 0
        inSlope: 0
        outSlope: 0
        tangentMode: 0
      - serializedVersion: 2
        time: 7.399997
        value: 0
        inSlope: 0
        outSlope: 0
        tangentMode: 0
      - serializedVersion: 2
        time: 7.599997
        value: 0
        inSlope: 0
        outSlope: 0
        tangentMode: 0
      - serializedVersion: 2
        time: 7.799997
        value: 0
        inSlope: 0
        outSlope: 0
        tangentMode: 0
      - serializedVersion: 2
        time: 8
        value: 0
        inSlope: 0
        outSlope: 0
        tangentMode: 0
      m_PreInfinity: 2
      m_PostInfinity: 2
      m_RotationOrder: 4
    attribute: m_LocalRotation.x
    path: 
    classID: 4
    script: {fileID: 0}
  - curve:
      serializedVersion: 2
      m_Curve:
      - serializedVersion: 2
        time: 0
        value: 0.7701293
        inSlope: 0.012088716
        outSlope: 0.012088716
        tangentMode: 0
      - serializedVersion: 2
        time: 0.2
        value: 0.77254707
        inSlope: 0.023210496
        outSlope: 0.023210496
        tangentMode: 0
      - serializedVersion: 2
        time: 0.4
        value: 0.7794135
        inSlope: 0.04382834
        outSlope: 0.04382834
        tangentMode: 0
      - serializedVersion: 2
        time: 0.6
        value: 0.7900784
        inSlope: 0.061032027
        outSlope: 0.061032027
        tangentMode: 0
      - serializedVersion: 2
        time: 0.8
        value: 0.80382633
        inSlope: 0.074576296
        outSlope: 0.074576296
        tangentMode: 0
      - serializedVersion: 2
        time: 1
        value: 0.8199089
        inSlope: 0.08436858
        outSlope: 0.08436858
        tangentMode: 0
      - serializedVersion: 2
        time: 1.2
        value: 0.83757377
        inSlope: 0.09045658
        outSlope: 0.09045658
        tangentMode: 0
      - serializedVersion: 2
        time: 1.4000001
        value: 0.85609156
        inSlope: 0.09301645
        outSlope: 0.09301645
        tangentMode: 0
      - serializedVersion: 2
        time: 1.6000001
        value: 0.87478036
        inSlope: 0.09234173
        outSlope: 0.09234173
        tangentMode: 0
      - serializedVersion: 2
        time: 1.8000002
        value: 0.89302826
        inSlope: 0.08882908
        outSlope: 0.08882908
        tangentMode: 0
      - serializedVersion: 2
        time: 2.0000002
        value: 0.910312
        inSlope: 0.08295847
        outSlope: 0.08295847
        tangentMode: 0
      - serializedVersion: 2
        time: 2.2000003
        value: 0.92621166
        inSlope: 0.07526977
        outSlope: 0.07526977
        tangentMode: 0
      - serializedVersion: 2
        time: 2.4000003
        value: 0.9404199
        inSlope: 0.06633519
        outSlope: 0.06633519
        tangentMode: 0
      - serializedVersion: 2
        time: 2.6000004
        value: 0.95274574
        inSlope: 0.05672677
        outSlope: 0.05672677
        tangentMode: 0
      - serializedVersion: 2
        time: 2.8000004
        value: 0.9631106
        inSlope: 0.046982158
        outSlope: 0.046982158
        tangentMode: 0
      - serializedVersion: 2
        time: 3.0000005
        value: 0.9715386
        inSlope: 0.03757044
        outSlope: 0.03757044
        tangentMode: 0
      - serializedVersion: 2
        time: 3.2000005
        value: 0.9781388
        inSlope: 0.028855197
        outSlope: 0.028855197
        tangentMode: 0
      - serializedVersion: 2
        time: 3.4000006
        value: 0.9830807
        inSlope: 0.021061894
        outSlope: 0.021061894
        tangentMode: 0
      - serializedVersion: 2
        time: 3.6000006
        value: 0.98656356
        inSlope: 0.014244612
        outSlope: 0.014244612
        tangentMode: 0
      - serializedVersion: 2
        time: 3.8000007
        value: 0.98877853
        inSlope: 0.008255244
        outSlope: 0.008255244
        tangentMode: 0
      - serializedVersion: 2
        time: 4.0000005
        value: 0.98986566
        inSlope: 0.00403494
        outSlope: 0.00403494
        tangentMode: 0
      - serializedVersion: 2
        time: 4.2000003
        value: 0.9903925
        inSlope: 0.0025342428
        outSlope: 0.0025342428
        tangentMode: 0
      - serializedVersion: 2
        time: 4.4
        value: 0.99087936
        inSlope: 0.0023394846
        outSlope: 0.0023394846
        tangentMode: 0
      - serializedVersion: 2
        time: 4.6
        value: 0.9913283
        inSlope: 0.0021547098
        outSlope: 0.0021547098
        tangentMode: 0
      - serializedVersion: 2
        time: 4.7999997
        value: 0.99174124
        inSlope: 0.001979323
        outSlope: 0.001979323
        tangentMode: 0
      - serializedVersion: 2
        time: 4.9999995
        value: 0.99212
        inSlope: 0.001812877
        outSlope: 0.001812877
        tangentMode: 0
      - serializedVersion: 2
        time: 5.1999993
        value: 0.9924664
        inSlope: 0.0016546266
        outSlope: 0.0016546266
        tangentMode: 0
      - serializedVersion: 2
        time: 5.399999
        value: 0.9927819
        inSlope: 0.0015039756
        outSlope: 0.0015039756
        tangentMode: 0
      - serializedVersion: 2
        time: 5.599999
        value: 0.993068
        inSlope: 0.0013606264
        outSlope: 0.0013606264
        tangentMode: 0
      - serializedVersion: 2
        time: 5.7999988
        value: 0.9933261
        inSlope: 0.0012238335
        outSlope: 0.0012238335
        tangentMode: 0
      - serializedVersion: 2
        time: 5.9999986
        value: 0.9935575
        inSlope: 0.0010931501
        outSlope: 0.0010931501
        tangentMode: 0
      - serializedVersion: 2
        time: 6.1999984
        value: 0.9937634
        inSlope: 0.0009681294
        outSlope: 0.0009681294
        tangentMode: 0
      - serializedVersion: 2
        time: 6.399998
        value: 0.99394476
        inSlope: 0.0008480259
        outSlope: 0.0008480259
        tangentMode: 0
      - serializedVersion: 2
        time: 6.599998
        value: 0.9941026
        inSlope: 0.0007323928
        outSlope: 0.0007323928
        tangentMode: 0
      - serializedVersion: 2
        time: 6.799998
        value: 0.9942377
        inSlope: 0.00062048493
        outSlope: 0.00062048493
        tangentMode: 0
      - serializedVersion: 2
        time: 6.9999976
        value: 0.9943508
        inSlope: 0.00051200436
        outSlope: 0.00051200436
        tangentMode: 0
      - serializedVersion: 2
        time: 7.1999974
        value: 0.9944425
        inSlope: 0.00040635507
        outSlope: 0.00040635507
        tangentMode: 0
      - serializedVersion: 2
        time: 7.399997
        value: 0.99451333
        inSlope: 0.0003027919
        outSlope: 0.0003027919
        tangentMode: 0
      - serializedVersion: 2
        time: 7.599997
        value: 0.99456364
        inSlope: 0.00020086784
        outSlope: 0.00020086784
        tangentMode: 0
      - serializedVersion: 2
        time: 7.799997
        value: 0.9945937
        inSlope: 0.00010013548
        outSlope: 0.00010013548
        tangentMode: 0
      - serializedVersion: 2
        time: 8
        value: 0.9946037
        inSlope: 0.000050067112
        outSlope: 0.000050067112
        tangentMode: 0
      m_PreInfinity: 2
      m_PostInfinity: 2
      m_RotationOrder: 4
    attribute: m_LocalRotation.y
    path: 
    classID: 4
    script: {fileID: 0}
  - curve:
      serializedVersion: 2
      m_Curve:
      - serializedVersion: 2
        time: 0
        value: 0
        inSlope: 0
        outSlope: 0
        tangentMode: 0
      - serializedVersion: 2
        time: 0.2
        value: 0
        inSlope: 0
        outSlope: 0
        tangentMode: 0
      - serializedVersion: 2
        time: 0.4
        value: 0
        inSlope: 0
        outSlope: 0
        tangentMode: 0
      - serializedVersion: 2
        time: 0.6
        value: 0
        inSlope: 0
        outSlope: 0
        tangentMode: 0
      - serializedVersion: 2
        time: 0.8
        value: 0
        inSlope: 0
        outSlope: 0
        tangentMode: 0
      - serializedVersion: 2
        time: 1
        value: 0
        inSlope: 0
        outSlope: 0
        tangentMode: 0
      - serializedVersion: 2
        time: 1.2
        value: 0
        inSlope: 0
        outSlope: 0
        tangentMode: 0
      - serializedVersion: 2
        time: 1.4000001
        value: 0
        inSlope: 0
        outSlope: 0
        tangentMode: 0
      - serializedVersion: 2
        time: 1.6000001
        value: 0
        inSlope: 0
        outSlope: 0
        tangentMode: 0
      - serializedVersion: 2
        time: 1.8000002
        value: 0
        inSlope: 0
        outSlope: 0
        tangentMode: 0
      - serializedVersion: 2
        time: 2.0000002
        value: 0
        inSlope: 0
        outSlope: 0
        tangentMode: 0
      - serializedVersion: 2
        time: 2.2000003
        value: 0
        inSlope: 0
        outSlope: 0
        tangentMode: 0
      - serializedVersion: 2
        time: 2.4000003
        value: 0
        inSlope: 0
        outSlope: 0
        tangentMode: 0
      - serializedVersion: 2
        time: 2.6000004
        value: 0
        inSlope: 0
        outSlope: 0
        tangentMode: 0
      - serializedVersion: 2
        time: 2.8000004
        value: 0
        inSlope: 0
        outSlope: 0
        tangentMode: 0
      - serializedVersion: 2
        time: 3.0000005
        value: 0
        inSlope: 0
        outSlope: 0
        tangentMode: 0
      - serializedVersion: 2
        time: 3.2000005
        value: 0
        inSlope: 0
        outSlope: 0
        tangentMode: 0
      - serializedVersion: 2
        time: 3.4000006
        value: 0
        inSlope: 0
        outSlope: 0
        tangentMode: 0
      - serializedVersion: 2
        time: 3.6000006
        value: 0
        inSlope: 0
        outSlope: 0
        tangentMode: 0
      - serializedVersion: 2
        time: 3.8000007
        value: 0
        inSlope: 0
        outSlope: 0
        tangentMode: 0
      - serializedVersion: 2
        time: 4.0000005
        value: 0
        inSlope: 0
        outSlope: 0
        tangentMode: 0
      - serializedVersion: 2
        time: 4.2000003
        value: 0
        inSlope: 0
        outSlope: 0
        tangentMode: 0
      - serializedVersion: 2
        time: 4.4
        value: 0
        inSlope: 0
        outSlope: 0
        tangentMode: 0
      - serializedVersion: 2
        time: 4.6
        value: 0
        inSlope: 0
        outSlope: 0
        tangentMode: 0
      - serializedVersion: 2
        time: 4.7999997
        value: 0
        inSlope: 0
        outSlope: 0
        tangentMode: 0
      - serializedVersion: 2
        time: 4.9999995
        value: 0
        inSlope: 0
        outSlope: 0
        tangentMode: 0
      - serializedVersion: 2
        time: 5.1999993
        value: 0
        inSlope: 0
        outSlope: 0
        tangentMode: 0
      - serializedVersion: 2
        time: 5.399999
        value: 0
        inSlope: 0
        outSlope: 0
        tangentMode: 0
      - serializedVersion: 2
        time: 5.599999
        value: 0
        inSlope: 0
        outSlope: 0
        tangentMode: 0
      - serializedVersion: 2
        time: 5.7999988
        value: 0
        inSlope: 0
        outSlope: 0
        tangentMode: 0
      - serializedVersion: 2
        time: 5.9999986
        value: 0
        inSlope: 0
        outSlope: 0
        tangentMode: 0
      - serializedVersion: 2
        time: 6.1999984
        value: 0
        inSlope: 0
        outSlope: 0
        tangentMode: 0
      - serializedVersion: 2
        time: 6.399998
        value: 0
        inSlope: 0
        outSlope: 0
        tangentMode: 0
      - serializedVersion: 2
        time: 6.599998
        value: 0
        inSlope: 0
        outSlope: 0
        tangentMode: 0
      - serializedVersion: 2
        time: 6.799998
        value: 0
        inSlope: 0
        outSlope: 0
        tangentMode: 0
      - serializedVersion: 2
        time: 6.9999976
        value: 0
        inSlope: 0
        outSlope: 0
        tangentMode: 0
      - serializedVersion: 2
        time: 7.1999974
        value: 0
        inSlope: 0
        outSlope: 0
        tangentMode: 0
      - serializedVersion: 2
        time: 7.399997
        value: 0
        inSlope: 0
        outSlope: 0
        tangentMode: 0
      - serializedVersion: 2
        time: 7.599997
        value: 0
        inSlope: 0
        outSlope: 0
        tangentMode: 0
      - serializedVersion: 2
        time: 7.799997
        value: 0
        inSlope: 0
        outSlope: 0
        tangentMode: 0
      - serializedVersion: 2
        time: 8
        value: 0
        inSlope: 0
        outSlope: 0
        tangentMode: 0
      m_PreInfinity: 2
      m_PostInfinity: 2
      m_RotationOrder: 4
    attribute: m_LocalRotation.z
    path: 
    classID: 4
    script: {fileID: 0}
  - curve:
      serializedVersion: 2
      m_Curve:
      - serializedVersion: 2
        time: 0
        value: 0.63788784
        inSlope: -0.014651716
        outSlope: -0.014651716
        tangentMode: 0
      - serializedVersion: 2
        time: 0.2
        value: 0.6349575
        inSlope: -0.028445125
        outSlope: -0.028445125
        tangentMode: 0
      - serializedVersion: 2
        time: 0.4
        value: 0.6265098
        inSlope: -0.054879185
        outSlope: -0.054879185
        tangentMode: 0
      - serializedVersion: 2
        time: 0.6
        value: 0.6130058
        inSlope: -0.07911429
        outSlope: -0.07911429
        tangentMode: 0
      - serializedVersion: 2
        time: 0.8
        value: 0.5948641
        inSlope: -0.101279475
        outSlope: -0.101279475
        tangentMode: 0
      - serializedVersion: 2
        time: 1
        value: 0.57249403
        inSlope: -0.12134953
        outSlope: -0.12134953
        tangentMode: 0
      - serializedVersion: 2
        time: 1.2
        value: 0.54632425
        inSlope: -0.13917443
        outSlope: -0.13917443
        tangentMode: 0
      - serializedVersion: 2
        time: 1.4000001
        value: 0.51682425
        inSlope: -0.15451136
        outSlope: -0.15451136
        tangentMode: 0
      - serializedVersion: 2
        time: 1.6000001
        value: 0.4845197
        inSlope: -0.16705918
        outSlope: -0.16705918
        tangentMode: 0
      - serializedVersion: 2
        time: 1.8000002
        value: 0.45000055
        inSlope: -0.17649236
        outSlope: -0.17649236
        tangentMode: 0
      - serializedVersion: 2
        time: 2.0000002
        value: 0.41392273
        inSlope: -0.18249142
        outSlope: -0.18249142
        tangentMode: 0
      - serializedVersion: 2
        time: 2.2000003
        value: 0.37700397
        inSlope: -0.18476869
        outSlope: -0.18476869
        tangentMode: 0
      - serializedVersion: 2
        time: 2.4000003
        value: 0.34001523
        inSlope: -0.18308754
        outSlope: -0.18308754
        tangentMode: 0
      - serializedVersion: 2
        time: 2.6000004
        value: 0.30376893
        inSlope: -0.17727348
        outSlope: -0.17727348
        tangentMode: 0
      - serializedVersion: 2
        time: 2.8000004
        value: 0.26910582
        inSlope: -0.1672193
        outSlope: -0.1672193
        tangentMode: 0
      - serializedVersion: 2
        time: 3.0000005
        value: 0.2368812
        inSlope: -0.15288159
        outSlope: -0.15288159
        tangentMode: 0
      - serializedVersion: 2
        time: 3.2000005
        value: 0.20795317
        inSlope: -0.13427068
        outSlope: -0.13427068
        tangentMode: 0
      - serializedVersion: 2
        time: 3.4000006
        value: 0.18317291
        inSlope: -0.11143786
        outSlope: -0.11143786
        tangentMode: 0
      - serializedVersion: 2
        time: 3.6000006
        value: 0.16337802
        inSlope: -0.08445999
        outSlope: -0.08445999
        tangentMode: 0
      - serializedVersion: 2
        time: 3.8000007
        value: 0.14938891
        inSlope: -0.053427823
        outSlope: -0.053427823
        tangentMode: 0
      - serializedVersion: 2
        time: 4.0000005
        value: 0.14200689
        inSlope: -0.027759884
        outSlope: -0.027759884
        tangentMode: 0
      - serializedVersion: 2
        time: 4.2000003
        value: 0.13828497
        inSlope: -0.018137041
        outSlope: -0.018137041
        tangentMode: 0
      - serializedVersion: 2
        time: 4.4
        value: 0.13475208
        inSlope: -0.017190965
        outSlope: -0.017190965
        tangentMode: 0
      - serializedVersion: 2
        time: 4.6
        value: 0.13140859
        inSlope: -0.016243286
        outSlope: -0.016243286
        tangentMode: 0
      - serializedVersion: 2
        time: 4.7999997
        value: 0.12825477
        inSlope: -0.0152942315
        outSlope: -0.0152942315
        tangentMode: 0
      - serializedVersion: 2
        time: 4.9999995
        value: 0.1252909
        inSlope: -0.014343591
        outSlope: -0.014343591
        tangentMode: 0
      - serializedVersion: 2
        time: 5.1999993
        value: 0.12251734
        inSlope: -0.013392078
        outSlope: -0.013392078
        tangentMode: 0
      - serializedVersion: 2
        time: 5.399999
        value: 0.119934075
        inSlope: -0.012439501
        outSlope: -0.012439501
        tangentMode: 0
      - serializedVersion: 2
        time: 5.599999
        value: 0.117541544
        inSlope: -0.011485975
        outSlope: -0.011485975
        tangentMode: 0
      - serializedVersion: 2
        time: 5.7999988
        value: 0.11533969
        inSlope: -0.010531591
        outSlope: -0.010531591
        tangentMode: 0
      - serializedVersion: 2
        time: 5.9999986
        value: 0.11332891
        inSlope: -0.009576166
        outSlope: -0.009576166
        tangentMode: 0
      - serializedVersion: 2
        time: 6.1999984
        value: 0.111509226
        inSlope: -0.0086206645
        outSlope: -0.0086206645
        tangentMode: 0
      - serializedVersion: 2
        time: 6.399998
        value: 0.10988065
        inSlope: -0.0076642893
        outSlope: -0.0076642893
        tangentMode: 0
      - serializedVersion: 2
        time: 6.599998
        value: 0.10844351
        inSlope: -0.0067070937
        outSlope: -0.0067070937
        tangentMode: 0
      - serializedVersion: 2
        time: 6.799998
        value: 0.10719781
        inSlope: -0.005749749
        outSlope: -0.005749749
        tangentMode: 0
      - serializedVersion: 2
        time: 6.9999976
        value: 0.106143616
        inSlope: -0.004792069
        outSlope: -0.004792069
        tangentMode: 0
      - serializedVersion: 2
        time: 7.1999974
        value: 0.10528099
        inSlope: -0.0038337745
        outSlope: -0.0038337745
        tangentMode: 0
      - serializedVersion: 2
        time: 7.399997
        value: 0.10461011
        inSlope: -0.0028758338
        outSlope: -0.0028758338
        tangentMode: 0
      - serializedVersion: 2
        time: 7.599997
        value: 0.104130656
        inSlope: -0.0019174088
        outSlope: -0.0019174088
        tangentMode: 0
      - serializedVersion: 2
        time: 7.799997
        value: 0.103843145
        inSlope: -0.00095857
        outSlope: -0.00095857
        tangentMode: 0
      - serializedVersion: 2
        time: 8
        value: 0.10374723
        inSlope: -0.00047958634
        outSlope: -0.00047958634
        tangentMode: 0
      m_PreInfinity: 2
      m_PostInfinity: 2
      m_RotationOrder: 4
    attribute: m_LocalRotation.w
    path: 
    classID: 4
    script: {fileID: 0}
  m_EulerEditorCurves:
  - curve:
      serializedVersion: 2
      m_Curve:
      - serializedVersion: 2
        time: 0
        value: 0
        inSlope: 0
        outSlope: 0
        tangentMode: 136
      - serializedVersion: 2
        time: 4
        value: 0
        inSlope: 0
        outSlope: 0
        tangentMode: 136
      - serializedVersion: 2
        time: 8
        value: 0
        inSlope: 0
        outSlope: 0
        tangentMode: 136
      m_PreInfinity: 2
      m_PostInfinity: 2
      m_RotationOrder: 4
    attribute: localEulerAnglesBaked.x
    path: 
    classID: 4
    script: {fileID: 0}
  - curve:
      serializedVersion: 2
      m_Curve:
      - serializedVersion: 2
        time: 0
        value: 100.731
        inSlope: 0
        outSlope: 0
        tangentMode: 136
      - serializedVersion: 2
        time: 4
        value: 163.67201
        inSlope: 2.2089999
        outSlope: 2.2089999
        tangentMode: 136
      - serializedVersion: 2
        time: 8
        value: 168.09001
        inSlope: 0
        outSlope: 0
        tangentMode: 136
      m_PreInfinity: 2
      m_PostInfinity: 2
      m_RotationOrder: 4
    attribute: localEulerAnglesBaked.y
    path: 
    classID: 4
    script: {fileID: 0}
  - curve:
      serializedVersion: 2
      m_Curve:
      - serializedVersion: 2
        time: 0
        value: 0
        inSlope: 0
        outSlope: 0
        tangentMode: 136
      - serializedVersion: 2
        time: 4
        value: 0
        inSlope: 0
        outSlope: 0
        tangentMode: 136
      - serializedVersion: 2
        time: 8
        value: 0
        inSlope: 0
        outSlope: 0
        tangentMode: 136
      m_PreInfinity: 2
      m_PostInfinity: 2
      m_RotationOrder: 4
    attribute: localEulerAnglesBaked.z
    path: 
    classID: 4
    script: {fileID: 0}
  m_HasGenericRootTransform: 0
  m_HasMotionFloatCurves: 0
  m_GenerateMotionCurves: 0
  m_Events: []
