%YAML 1.1
%TAG !u! tag:unity3d.com,2011:
--- !u!74 &7400000
AnimationClip:
  m_ObjectHideFlags: 0
  m_PrefabParentObject: {fileID: 0}
  m_PrefabInternal: {fileID: 0}
  m_Name: Intro4Anim
  serializedVersion: 6
  m_Legacy: 1
  m_Compressed: 0
  m_UseHighQualityCurve: 1
  m_RotationCurves:
  - curve:
      serializedVersion: 2
      m_Curve:
      - serializedVersion: 2
        time: 0
        value: {x: -0, y: -0, z: -0, w: -1}
        inSlope: {x: 0, y: -0.014078002, z: 0, w: 0.000019967556}
        outSlope: {x: 0, y: -0.014078002, z: 0, w: 0.000019967556}
        tangentMode: 0
      - serializedVersion: 2
        time: 0.2
        value: {x: -0, y: -0.0028156005, z: -0, w: -0.999996}
        inSlope: {x: 0, y: -0.027507275, z: 0, w: 0.0001513958}
        outSlope: {x: 0, y: -0.027507275, z: 0, w: 0.0001513958}
        tangentMode: 0
      - serializedVersion: 2
        time: 0.4
        value: {x: -0, y: -0.01100291, z: -0, w: -0.99993944}
        inSlope: {x: 0, y: -0.053389236, z: 0, w: 0.0007204711}
        outSlope: {x: 0, y: -0.053389236, z: 0, w: 0.0007204711}
        tangentMode: 0
      - serializedVersion: 2
        time: 0.6
        value: {x: -0, y: -0.024171297, z: -0, w: -0.9997078}
        inSlope: {x: 0, y: -0.07730758, z: 0, w: 0.0020468235}
        outSlope: {x: 0, y: -0.07730758, z: 0, w: 0.0020468235}
        tangentMode: 0
      - serializedVersion: 2
        time: 0.8
        value: {x: -0, y: -0.04192594, z: -0, w: -0.9991207}
        inSlope: {x: 0, y: -0.0992329, z: 0, w: 0.0043730442}
        outSlope: {x: 0, y: -0.0992329, z: 0, w: 0.0043730442}
        tangentMode: 0
      - serializedVersion: 2
        time: 1
        value: {x: -0, y: -0.063864455, z: -0, w: -0.9979586}
        inSlope: {x: 0, y: -0.1191193, z: 0, w: 0.007851272}
        outSlope: {x: 0, y: -0.1191193, z: 0, w: 0.007851272}
        tangentMode: 0
      - serializedVersion: 2
        time: 1.2
        value: {x: -0, y: -0.08957367, z: -0, w: -0.9959802}
        inSlope: {x: 0, y: -0.13690655, z: 0, w: 0.012549307}
        outSlope: {x: 0, y: -0.13690655, z: 0, w: 0.012549307}
        tangentMode: 0
      - serializedVersion: 2
        time: 1.4000001
        value: {x: -0, y: -0.11862709, z: -0, w: -0.9929389}
        inSlope: {x: 0, y: -0.15252498, z: 0, w: 0.01845732}
        outSlope: {x: 0, y: -0.15252498, z: 0, w: 0.01845732}
        tangentMode: 0
      - serializedVersion: 2
        time: 1.6000001
        value: {x: -0, y: -0.15058367, z: -0, w: -0.9885973}
        inSlope: {x: 0, y: -0.16590218, z: 0, w: 0.025495283}
        outSlope: {x: 0, y: -0.16590218, z: 0, w: 0.025495283}
        tangentMode: 0
      - serializedVersion: 2
        time: 1.8000002
        value: {x: -0, y: -0.18498798, z: -0, w: -0.98274076}
        inSlope: {x: 0, y: -0.17697066, z: 0, w: 0.03351956}
        outSlope: {x: 0, y: -0.17697066, z: 0, w: 0.03351956}
        tangentMode: 0
      - serializedVersion: 2
        time: 2.0000002
        value: {x: -0, y: -0.22137195, z: -0, w: -0.97518945}
        inSlope: {x: 0, y: -0.18567562, z: 0, w: 0.042331807}
        outSlope: {x: 0, y: -0.18567562, z: 0, w: 0.042331807}
        tangentMode: 0
      - serializedVersion: 2
        time: 2.2000003
        value: {x: -0, y: -0.25925824, z: -0, w: -0.96580803}
        inSlope: {x: 0, y: -0.19198294, z: 0, w: 0.051687792}
        outSlope: {x: 0, y: -0.19198294, z: 0, w: 0.051687792}
        tangentMode: 0
      - serializedVersion: 2
        time: 2.4000003
        value: {x: -0, y: -0.29816514, z: -0, w: -0.9545143}
        inSlope: {x: 0, y: -0.19588518, z: 0, w: 0.06130694}
        outSlope: {x: 0, y: -0.19588518, z: 0, w: 0.06130694}
        tangentMode: 0
      - serializedVersion: 2
        time: 2.6000004
        value: {x: -0, y: -0.33761233, z: -0, w: -0.94128525}
        inSlope: {x: 0, y: -0.19740681, z: 0, w: 0.07088287}
        outSlope: {x: 0, y: -0.19740681, z: 0, w: 0.07088287}
        tangentMode: 0
      - serializedVersion: 2
        time: 2.8000004
        value: {x: -0, y: -0.3771279, z: -0, w: -0.92616117}
        inSlope: {x: 0, y: -0.19660796, z: 0, w: 0.080093876}
        outSlope: {x: 0, y: -0.19660796, z: 0, w: 0.080093876}
        tangentMode: 0
      - serializedVersion: 2
        time: 3.0000005
        value: {x: -0, y: -0.41625553, z: -0, w: -0.9092477}
        inSlope: {x: 0, y: -0.19358459, z: 0, w: 0.0886148}
        outSlope: {x: 0, y: -0.19358459, z: 0, w: 0.0886148}
        tangentMode: 0
      - serializedVersion: 2
        time: 3.2000005
        value: {x: -0, y: -0.45456174, z: -0, w: -0.89071524}
        inSlope: {x: 0, y: -0.18846753, z: 0, w: 0.096126474}
        outSlope: {x: 0, y: -0.18846753, z: 0, w: 0.096126474}
        tangentMode: 0
      - serializedVersion: 2
        time: 3.4000006
        value: {x: -0, y: -0.49164256, z: -0, w: -0.8707971}
        inSlope: {x: 0, y: -0.18141884, z: 0, w: 0.10232536}
        outSlope: {x: 0, y: -0.18141884, z: 0, w: 0.10232536}
        tangentMode: 0
      - serializedVersion: 2
        time: 3.6000006
        value: {x: -0, y: -0.5271293, z: -0, w: -0.8497851}
        inSlope: {x: 0, y: -0.172627, z: 0, w: 0.10693399}
        outSlope: {x: 0, y: -0.172627, z: 0, w: 0.10693399}
        tangentMode: 0
      - serializedVersion: 2
        time: 3.8000007
        value: {x: -0, y: -0.5606934, z: -0, w: -0.8280235}
        inSlope: {x: 0, y: -0.162298, z: 0, w: 0.109706864}
        outSlope: {x: 0, y: -0.162298, z: 0, w: 0.109706864}
        tangentMode: 0
      - serializedVersion: 2
        time: 4.0000005
        value: {x: -0, y: -0.59204847, z: -0, w: -0.80590236}
        inSlope: {x: 0, y: -0.15684009, z: 0, w: 0.11535953}
        outSlope: {x: 0, y: -0.15684009, z: 0, w: 0.11535953}
        tangentMode: 0
      - serializedVersion: 2
        time: 4.2000003
        value: {x: -0, y: -0.62342936, z: -0, w: -0.7818797}
        inSlope: {x: 0, y: -0.16165331, z: 0, w: 0.12939733}
        outSlope: {x: 0, y: -0.16165331, z: 0, w: 0.12939733}
        tangentMode: 0
      - serializedVersion: 2
        time: 4.4
        value: {x: -0, y: -0.65670973, z: -0, w: -0.7541435}
        inSlope: {x: 0, y: -0.1691726, z: 0, w: 0.14779761}
        outSlope: {x: 0, y: -0.1691726, z: 0, w: 0.14779761}
        tangentMode: 0
      - serializedVersion: 2
        time: 4.6
        value: {x: -0, y: -0.69109833, z: -0, w: -0.72276074}
        inSlope: {x: 0, y: -0.17278628, z: 0, w: 0.16565815}
        outSlope: {x: 0, y: -0.17278628, z: 0, w: 0.16565815}
        tangentMode: 0
      - serializedVersion: 2
        time: 4.7999997
        value: {x: -0, y: -0.7258242, z: -0, w: -0.6878803}
        inSlope: {x: 0, y: -0.1726398, z: 0, w: 0.18254521}
        outSlope: {x: 0, y: -0.1726398, z: 0, w: 0.18254521}
        tangentMode: 0
      - serializedVersion: 2
        time: 4.9999995
        value: {x: -0, y: -0.7601542, z: -0, w: -0.6497427}
        inSlope: {x: 0, y: -0.16896875, z: 0, w: 0.19798714}
        outSlope: {x: 0, y: -0.16896875, z: 0, w: 0.19798714}
        tangentMode: 0
      - serializedVersion: 2
        time: 5.1999993
        value: {x: -0, y: -0.7934116, z: -0, w: -0.6086855}
        inSlope: {x: 0, y: -0.1620999, z: 0, w: 0.21150371}
        outSlope: {x: 0, y: -0.1620999, z: 0, w: 0.21150371}
        tangentMode: 0
      - serializedVersion: 2
        time: 5.399999
        value: {x: -0, y: -0.8249941, z: -0, w: -0.5651413}
        inSlope: {x: 0, y: -0.15244529, z: 0, w: 0.2226319}
        outSlope: {x: 0, y: -0.15244529, z: 0, w: 0.2226319}
        tangentMode: 0
      - serializedVersion: 2
        time: 5.599999
        value: {x: -0, y: -0.85438967, z: -0, w: -0.5196328}
        inSlope: {x: 0, y: -0.14049082, z: 0, w: 0.23094937}
        outSlope: {x: 0, y: -0.14049082, z: 0, w: 0.23094937}
        tangentMode: 0
      - serializedVersion: 2
        time: 5.7999988
        value: {x: -0, y: -0.88119036, z: -0, w: -0.47276166}
        inSlope: {x: 0, y: -0.12678024, z: 0, w: 0.23609444}
        outSlope: {x: 0, y: -0.12678024, z: 0, w: 0.23609444}
        tangentMode: 0
      - serializedVersion: 2
        time: 5.9999986
        value: {x: -0, y: -0.9051017, z: -0, w: -0.42519513}
        inSlope: {x: 0, y: -0.11189546, z: 0, w: 0.23777992}
        outSlope: {x: 0, y: -0.11189546, z: 0, w: 0.23777992}
        tangentMode: 0
      - serializedVersion: 2
        time: 6.1999984
        value: {x: -0, y: -0.9259485, z: -0, w: -0.37764978}
        inSlope: {x: 0, y: -0.0964331, z: 0, w: 0.23580313}
        outSlope: {x: 0, y: -0.0964331, z: 0, w: 0.23580313}
        tangentMode: 0
      - serializedVersion: 2
        time: 6.399998
        value: {x: -0, y: -0.9436749, z: -0, w: -0.33087397}
        inSlope: {x: 0, y: -0.080977455, z: 0, w: 0.23004508}
        outSlope: {x: 0, y: -0.080977455, z: 0, w: 0.23004508}
        tangentMode: 0
      - serializedVersion: 2
        time: 6.599998
        value: {x: -0, y: -0.95833945, z: -0, w: -0.28563184}
        inSlope: {x: 0, y: -0.06607419, z: 0, w: 0.22046714}
        outSlope: {x: 0, y: -0.06607419, z: 0, w: 0.22046714}
        tangentMode: 0
      - serializedVersion: 2
        time: 6.799998
        value: {x: -0, y: -0.9701046, z: -0, w: -0.2426872}
        inSlope: {x: 0, y: -0.052206717, z: 0, w: 0.20710328}
        outSlope: {x: 0, y: -0.052206717, z: 0, w: 0.20710328}
        tangentMode: 0
      - serializedVersion: 2
        time: 6.9999976
        value: {x: -0, y: -0.9792221, z: -0, w: -0.2027906}
        inSlope: {x: 0, y: -0.03977049, z: 0, w: 0.19004318}
        outSlope: {x: 0, y: -0.03977049, z: 0, w: 0.19004318}
        tangentMode: 0
      - serializedVersion: 2
        time: 7.1999974
        value: {x: -0, y: -0.98601276, z: -0, w: -0.16667}
        inSlope: {x: 0, y: -0.029050438, z: 0, w: 0.16941549}
        outSlope: {x: 0, y: -0.029050438, z: 0, w: 0.16941549}
        tangentMode: 0
      - serializedVersion: 2
        time: 7.399997
        value: {x: -0, y: -0.9908423, z: -0, w: -0.13502447}
        inSlope: {x: 0, y: -0.020203162, z: 0, w: 0.14536873}
        outSlope: {x: 0, y: -0.020203162, z: 0, w: 0.14536873}
        tangentMode: 0
      - serializedVersion: 2
        time: 7.599997
        value: {x: -0, y: -0.994094, z: -0, w: -0.10852256}
        inSlope: {x: 0, y: -0.0132388, z: 0, w: 0.118052006}
        outSlope: {x: 0, y: -0.0132388, z: 0, w: 0.118052006}
        tangentMode: 0
      - serializedVersion: 2
        time: 7.799997
        value: {x: -0, y: -0.9961378, z: -0, w: -0.087803714}
        inSlope: {x: 0, y: -0.008006252, z: 0, w: 0.087601215}
        outSlope: {x: 0, y: -0.008006252, z: 0, w: 0.087601215}
        tangentMode: 0
      - serializedVersion: 2
        time: 7.9999967
        value: {x: -0, y: -0.9972965, z: -0, w: -0.0734821}
        inSlope: {x: 0, y: -0.0047165155, z: 0, w: 0.062439624}
        outSlope: {x: 0, y: -0.0047165155, z: 0, w: 0.062439624}
        tangentMode: 0
      - serializedVersion: 2
        time: 8.199997
        value: {x: -0, y: -0.9980244, z: -0, w: -0.06282786}
        inSlope: {x: 0, y: -0.0032828737, z: 0, w: 0.051921584}
        outSlope: {x: 0, y: -0.0032828737, z: 0, w: 0.051921584}
        tangentMode: 0
      - serializedVersion: 2
        time: 8.399997
        value: {x: -0, y: -0.99860966, z: -0, w: -0.052713465}
        inSlope: {x: 0, y: -0.0026114308, z: 0, w: 0.0492174}
        outSlope: {x: 0, y: -0.0026114308, z: 0, w: 0.0492174}
        tangentMode: 0
      - serializedVersion: 2
        time: 8.599997
        value: {x: -0, y: -0.999069, z: -0, w: -0.04314092}
        inSlope: {x: 0, y: -0.0020208973, z: 0, w: 0.046504922}
        outSlope: {x: 0, y: -0.0020208973, z: 0, w: 0.046504922}
        tangentMode: 0
      - serializedVersion: 2
        time: 8.799996
        value: {x: -0, y: -0.999418, z: -0, w: -0.034111515}
        inSlope: {x: 0, y: -0.0015065088, z: 0, w: 0.043785073}
        outSlope: {x: 0, y: -0.0015065088, z: 0, w: 0.043785073}
        tangentMode: 0
      - serializedVersion: 2
        time: 8.999996
        value: {x: -0, y: -0.9996716, z: -0, w: -0.025626909}
        inSlope: {x: 0, y: -0.0010637948, z: 0, w: 0.04105877}
        outSlope: {x: 0, y: -0.0010637948, z: 0, w: 0.04105877}
        tangentMode: 0
      - serializedVersion: 2
        time: 9.199996
        value: {x: -0, y: -0.99984354, z: -0, w: -0.017688023}
        inSlope: {x: 0, y: -0.0006885833, z: 0, w: 0.038327903}
        outSlope: {x: 0, y: -0.0006885833, z: 0, w: 0.038327903}
        tangentMode: 0
      - serializedVersion: 2
        time: 9.399996
        value: {x: -0, y: -0.999947, z: -0, w: -0.010295762}
        inSlope: {x: 0, y: -0.00037625467, z: 0, w: 0.035594232}
        outSlope: {x: 0, y: -0.00037625467, z: 0, w: 0.035594232}
        tangentMode: 0
      - serializedVersion: 2
        time: 9.599996
        value: {x: -0, y: -0.99999404, z: -0, w: -0.0034503432}
        inSlope: {x: 0, y: -0.00012233865, z: 0, w: 0.03285812}
        outSlope: {x: 0, y: -0.00012233865, z: 0, w: 0.03285812}
        tangentMode: 0
      - serializedVersion: 2
        time: 9.799995
        value: {x: -0, y: -0.99999595, z: -0, w: 0.002847473}
        inSlope: {x: 0, y: 0.00007748611, z: 0, w: 0.03012006}
        outSlope: {x: 0, y: 0.00007748611, z: 0, w: 0.03012006}
        tangentMode: 0
      - serializedVersion: 2
        time: 9.999995
        value: {x: -0, y: -0.99996305, z: -0, w: 0.008597669}
        inSlope: {x: 0, y: 0.000227988, z: 0, w: 0.027381018}
        outSlope: {x: 0, y: 0.000227988, z: 0, w: 0.027381018}
        tangentMode: 0
      - serializedVersion: 2
        time: 10.199995
        value: {x: -0, y: -0.99990475, z: -0, w: 0.013799869}
        inSlope: {x: 0, y: 0.0003333393, z: 0, w: 0.024641506}
        outSlope: {x: 0, y: 0.0003333393, z: 0, w: 0.024641506}
        tangentMode: 0
      - serializedVersion: 2
        time: 10.399995
        value: {x: -0, y: -0.9998297, z: -0, w: 0.018454263}
        inSlope: {x: 0, y: 0.0003981594, z: 0, w: 0.021901932}
        outSlope: {x: 0, y: 0.0003981594, z: 0, w: 0.021901932}
        tangentMode: 0
      - serializedVersion: 2
        time: 10.599995
        value: {x: -0, y: -0.9997455, z: -0, w: 0.022560634}
        inSlope: {x: 0, y: 0.0004272167, z: 0, w: 0.019162577}
        outSlope: {x: 0, y: 0.0004272167, z: 0, w: 0.019162577}
        tangentMode: 0
      - serializedVersion: 2
        time: 10.799994
        value: {x: -0, y: -0.9996588, z: -0, w: 0.026119286}
        inSlope: {x: 0, y: 0.0004246835, z: 0, w: 0.016423922}
        outSlope: {x: 0, y: 0.0004246835, z: 0, w: 0.016423922}
        tangentMode: 0
      - serializedVersion: 2
        time: 10.999994
        value: {x: -0, y: -0.9995756, z: -0, w: 0.029130196}
        inSlope: {x: 0, y: 0.00039503016, z: 0, w: 0.013685179}
        outSlope: {x: 0, y: 0.00039503016, z: 0, w: 0.013685179}
        tangentMode: 0
      - serializedVersion: 2
        time: 11.199994
        value: {x: -0, y: -0.9995008, z: -0, w: 0.031593353}
        inSlope: {x: 0, y: 0.00034302505, z: 0, w: 0.010947283}
        outSlope: {x: 0, y: 0.00034302505, z: 0, w: 0.010947283}
        tangentMode: 0
      - serializedVersion: 2
        time: 11.399994
        value: {x: -0, y: -0.9994384, z: -0, w: 0.033509105}
        inSlope: {x: 0, y: 0.00027298954, z: 0, w: 0.008210184}
        outSlope: {x: 0, y: 0.00027298954, z: 0, w: 0.008210184}
        tangentMode: 0
      - serializedVersion: 2
        time: 11.599994
        value: {x: -0, y: -0.9993916, z: -0, w: 0.034877423}
        inSlope: {x: 0, y: 0.00018954295, z: 0, w: 0.0054734903}
        outSlope: {x: 0, y: 0.00018954295, z: 0, w: 0.0054734903}
        tangentMode: 0
      - serializedVersion: 2
        time: 11.7999935
        value: {x: -0, y: -0.9993626, z: -0, w: 0.0356985}
        inSlope: {x: 0, y: 0.00009700584, z: 0, w: 0.0027364942}
        outSlope: {x: 0, y: 0.00009700584, z: 0, w: 0.0027364942}
        tangentMode: 0
      - serializedVersion: 2
        time: 12
        value: {x: -0, y: -0.9993528, z: -0, w: 0.03597203}
        inSlope: {x: 0, y: 0.000048874223, z: 0, w: 0.0013676028}
        outSlope: {x: 0, y: 0.000048874223, z: 0, w: 0.0013676028}
        tangentMode: 0
      m_PreInfinity: 2
      m_PostInfinity: 2
      m_RotationOrder: 4
    path: 
  m_CompressedRotationCurves: []
  m_EulerCurves: []
  m_PositionCurves:
  - curve:
      serializedVersion: 2
      m_Curve:
      - serializedVersion: 2
        time: 0
        value: {x: -35.6, y: 19.4, z: -44.6}
        inSlope: {x: 0, y: 0, z: 0}
        outSlope: {x: 0, y: 0, z: 0}
        tangentMode: 0
      - serializedVersion: 2
        time: 4
        value: {x: -27.83, y: 19.32, z: -44.6}
        inSlope: {x: 2.4212499, y: -0.03999996, z: 0}
        outSlope: {x: 2.4212499, y: -0.03999996, z: 0}
        tangentMode: 0
      - serializedVersion: 2
        time: 8
        value: {x: -16.23, y: 17.86, z: -49}
        inSlope: {x: 0, y: -0.2774999, z: -1.09625}
        outSlope: {x: 0, y: -0.2774999, z: -1.09625}
        tangentMode: 0
      - serializedVersion: 2
        time: 12
        value: {x: -17.55, y: 17.1, z: -53.37}
        inSlope: {x: 0, y: -0.19222239, z: -0.9144444}
        outSlope: {x: 0, y: -0.19222239, z: -0.9144444}
        tangentMode: 0
      - serializedVersion: 2
        time: 17
        value: {x: -17.15, y: 16.13, z: -57.23}
        inSlope: {x: 0, y: 0, z: 0}
        outSlope: {x: 0, y: 0, z: 0}
        tangentMode: 0
      m_PreInfinity: 2
      m_PostInfinity: 2
      m_RotationOrder: 4
    path: 
  m_ScaleCurves: []
  m_FloatCurves: []
  m_PPtrCurves: []
  m_SampleRate: 5
  m_WrapMode: 0
  m_Bounds:
    m_Center: {x: 0, y: 0, z: 0}
    m_Extent: {x: 0, y: 0, z: 0}
  m_ClipBindingConstant:
    genericBindings: []
    pptrCurveMapping: []
  m_AnimationClipSettings:
    serializedVersion: 2
    m_AdditiveReferencePoseClip: {fileID: 0}
    m_AdditiveReferencePoseTime: 0
    m_StartTime: 0
    m_StopTime: 17
    m_OrientationOffsetY: 0
    m_Level: 0
    m_CycleOffset: 0
    m_HasAdditiveReferencePose: 0
    m_LoopTime: 1
    m_LoopBlend: 0
    m_LoopBlendOrientation: 0
    m_LoopBlendPositionY: 0
    m_LoopBlendPositionXZ: 0
    m_KeepOriginalOrientation: 0
    m_KeepOriginalPositionY: 1
    m_KeepOriginalPositionXZ: 0
    m_HeightFromFeet: 0
    m_Mirror: 0
  m_EditorCurves:
  - curve:
      serializedVersion: 2
      m_Curve:
      - serializedVersion: 2
        time: 0
        value: -35.6
        inSlope: 0
        outSlope: 0
        tangentMode: 136
      - serializedVersion: 2
        time: 4
        value: -27.83
        inSlope: 2.4212499
        outSlope: 2.4212499
        tangentMode: 136
      - serializedVersion: 2
        time: 8
        value: -16.23
        inSlope: 0
        outSlope: 0
        tangentMode: 136
      - serializedVersion: 2
        time: 12
        value: -17.55
        inSlope: 0
        outSlope: 0
        tangentMode: 136
      - serializedVersion: 2
        time: 17
        value: -17.15
        inSlope: 0
        outSlope: 0
        tangentMode: 136
      m_PreInfinity: 2
      m_PostInfinity: 2
      m_RotationOrder: 4
    attribute: m_LocalPosition.x
    path: 
    classID: 4
    script: {fileID: 0}
  - curve:
      serializedVersion: 2
      m_Curve:
      - serializedVersion: 2
        time: 0
        value: 19.4
        inSlope: 0
        outSlope: 0
        tangentMode: 136
      - serializedVersion: 2
        time: 4
        value: 19.32
        inSlope: -0.03999996
        outSlope: -0.03999996
        tangentMode: 136
      - serializedVersion: 2
        time: 8
        value: 17.86
        inSlope: -0.2774999
        outSlope: -0.2774999
        tangentMode: 136
      - serializedVersion: 2
        time: 12
        value: 17.1
        inSlope: -0.19222239
        outSlope: -0.19222239
        tangentMode: 136
      - serializedVersion: 2
        time: 17
        value: 16.13
        inSlope: 0
        outSlope: 0
        tangentMode: 136
      m_PreInfinity: 2
      m_PostInfinity: 2
      m_RotationOrder: 4
    attribute: m_LocalPosition.y
    path: 
    classID: 4
    script: {fileID: 0}
  - curve:
      serializedVersion: 2
      m_Curve:
      - serializedVersion: 2
        time: 0
        value: -44.6
        inSlope: 0
        outSlope: 0
        tangentMode: 136
      - serializedVersion: 2
        time: 4
        value: -44.6
        inSlope: 0
        outSlope: 0
        tangentMode: 136
      - serializedVersion: 2
        time: 8
        value: -49
        inSlope: -1.09625
        outSlope: -1.09625
        tangentMode: 136
      - serializedVersion: 2
        time: 12
        value: -53.37
        inSlope: -0.9144444
        outSlope: -0.9144444
        tangentMode: 136
      - serializedVersion: 2
        time: 17
        value: -57.23
        inSlope: 0
        outSlope: 0
        tangentMode: 136
      m_PreInfinity: 2
      m_PostInfinity: 2
      m_RotationOrder: 4
    attribute: m_LocalPosition.z
    path: 
    classID: 4
    script: {fileID: 0}
  - curve:
      serializedVersion: 2
      m_Curve:
      - serializedVersion: 2
        time: 0
        value: -0
        inSlope: 0
        outSlope: 0
        tangentMode: 0
      - serializedVersion: 2
        time: 0.2
        value: -0
        inSlope: 0
        outSlope: 0
        tangentMode: 0
      - serializedVersion: 2
        time: 0.4
        value: -0
        inSlope: 0
        outSlope: 0
        tangentMode: 0
      - serializedVersion: 2
        time: 0.6
        value: -0
        inSlope: 0
        outSlope: 0
        tangentMode: 0
      - serializedVersion: 2
        time: 0.8
        value: -0
        inSlope: 0
        outSlope: 0
        tangentMode: 0
      - serializedVersion: 2
        time: 1
        value: -0
        inSlope: 0
        outSlope: 0
        tangentMode: 0
      - serializedVersion: 2
        time: 1.2
        value: -0
        inSlope: 0
        outSlope: 0
        tangentMode: 0
      - serializedVersion: 2
        time: 1.4000001
        value: -0
        inSlope: 0
        outSlope: 0
        tangentMode: 0
      - serializedVersion: 2
        time: 1.6000001
        value: -0
        inSlope: 0
        outSlope: 0
        tangentMode: 0
      - serializedVersion: 2
        time: 1.8000002
        value: -0
        inSlope: 0
        outSlope: 0
        tangentMode: 0
      - serializedVersion: 2
        time: 2.0000002
        value: -0
        inSlope: 0
        outSlope: 0
        tangentMode: 0
      - serializedVersion: 2
        time: 2.2000003
        value: -0
        inSlope: 0
        outSlope: 0
        tangentMode: 0
      - serializedVersion: 2
        time: 2.4000003
        value: -0
        inSlope: 0
        outSlope: 0
        tangentMode: 0
      - serializedVersion: 2
        time: 2.6000004
        value: -0
        inSlope: 0
        outSlope: 0
        tangentMode: 0
      - serializedVersion: 2
        time: 2.8000004
        value: -0
        inSlope: 0
        outSlope: 0
        tangentMode: 0
      - serializedVersion: 2
        time: 3.0000005
        value: -0
        inSlope: 0
        outSlope: 0
        tangentMode: 0
      - serializedVersion: 2
        time: 3.2000005
        value: -0
        inSlope: 0
        outSlope: 0
        tangentMode: 0
      - serializedVersion: 2
        time: 3.4000006
        value: -0
        inSlope: 0
        outSlope: 0
        tangentMode: 0
      - serializedVersion: 2
        time: 3.6000006
        value: -0
        inSlope: 0
        outSlope: 0
        tangentMode: 0
      - serializedVersion: 2
        time: 3.8000007
        value: -0
        inSlope: 0
        outSlope: 0
        tangentMode: 0
      - serializedVersion: 2
        time: 4.0000005
        value: -0
        inSlope: 0
        outSlope: 0
        tangentMode: 0
      - serializedVersion: 2
        time: 4.2000003
        value: -0
        inSlope: 0
        outSlope: 0
        tangentMode: 0
      - serializedVersion: 2
        time: 4.4
        value: -0
        inSlope: 0
        outSlope: 0
        tangentMode: 0
      - serializedVersion: 2
        time: 4.6
        value: -0
        inSlope: 0
        outSlope: 0
        tangentMode: 0
      - serializedVersion: 2
        time: 4.7999997
        value: -0
        inSlope: 0
        outSlope: 0
        tangentMode: 0
      - serializedVersion: 2
        time: 4.9999995
        value: -0
        inSlope: 0
        outSlope: 0
        tangentMode: 0
      - serializedVersion: 2
        time: 5.1999993
        value: -0
        inSlope: 0
        outSlope: 0
        tangentMode: 0
      - serializedVersion: 2
        time: 5.399999
        value: -0
        inSlope: 0
        outSlope: 0
        tangentMode: 0
      - serializedVersion: 2
        time: 5.599999
        value: -0
        inSlope: 0
        outSlope: 0
        tangentMode: 0
      - serializedVersion: 2
        time: 5.7999988
        value: -0
        inSlope: 0
        outSlope: 0
        tangentMode: 0
      - serializedVersion: 2
        time: 5.9999986
        value: -0
        inSlope: 0
        outSlope: 0
        tangentMode: 0
      - serializedVersion: 2
        time: 6.1999984
        value: -0
        inSlope: 0
        outSlope: 0
        tangentMode: 0
      - serializedVersion: 2
        time: 6.399998
        value: -0
        inSlope: 0
        outSlope: 0
        tangentMode: 0
      - serializedVersion: 2
        time: 6.599998
        value: -0
        inSlope: 0
        outSlope: 0
        tangentMode: 0
      - serializedVersion: 2
        time: 6.799998
        value: -0
        inSlope: 0
        outSlope: 0
        tangentMode: 0
      - serializedVersion: 2
        time: 6.9999976
        value: -0
        inSlope: 0
        outSlope: 0
        tangentMode: 0
      - serializedVersion: 2
        time: 7.1999974
        value: -0
        inSlope: 0
        outSlope: 0
        tangentMode: 0
      - serializedVersion: 2
        time: 7.399997
        value: -0
        inSlope: 0
        outSlope: 0
        tangentMode: 0
      - serializedVersion: 2
        time: 7.599997
        value: -0
        inSlope: 0
        outSlope: 0
        tangentMode: 0
      - serializedVersion: 2
        time: 7.799997
        value: -0
        inSlope: 0
        outSlope: 0
        tangentMode: 0
      - serializedVersion: 2
        time: 7.9999967
        value: -0
        inSlope: 0
        outSlope: 0
        tangentMode: 0
      - serializedVersion: 2
        time: 8.199997
        value: -0
        inSlope: 0
        outSlope: 0
        tangentMode: 0
      - serializedVersion: 2
        time: 8.399997
        value: -0
        inSlope: 0
        outSlope: 0
        tangentMode: 0
      - serializedVersion: 2
        time: 8.599997
        value: -0
        inSlope: 0
        outSlope: 0
        tangentMode: 0
      - serializedVersion: 2
        time: 8.799996
        value: -0
        inSlope: 0
        outSlope: 0
        tangentMode: 0
      - serializedVersion: 2
        time: 8.999996
        value: -0
        inSlope: 0
        outSlope: 0
        tangentMode: 0
      - serializedVersion: 2
        time: 9.199996
        value: -0
        inSlope: 0
        outSlope: 0
        tangentMode: 0
      - serializedVersion: 2
        time: 9.399996
        value: -0
        inSlope: 0
        outSlope: 0
        tangentMode: 0
      - serializedVersion: 2
        time: 9.599996
        value: -0
        inSlope: 0
        outSlope: 0
        tangentMode: 0
      - serializedVersion: 2
        time: 9.799995
        value: -0
        inSlope: 0
        outSlope: 0
        tangentMode: 0
      - serializedVersion: 2
        time: 9.999995
        value: -0
        inSlope: 0
        outSlope: 0
        tangentMode: 0
      - serializedVersion: 2
        time: 10.199995
        value: -0
        inSlope: 0
        outSlope: 0
        tangentMode: 0
      - serializedVersion: 2
        time: 10.399995
        value: -0
        inSlope: 0
        outSlope: 0
        tangentMode: 0
      - serializedVersion: 2
        time: 10.599995
        value: -0
        inSlope: 0
        outSlope: 0
        tangentMode: 0
      - serializedVersion: 2
        time: 10.799994
        value: -0
        inSlope: 0
        outSlope: 0
        tangentMode: 0
      - serializedVersion: 2
        time: 10.999994
        value: -0
        inSlope: 0
        outSlope: 0
        tangentMode: 0
      - serializedVersion: 2
        time: 11.199994
        value: -0
        inSlope: 0
        outSlope: 0
        tangentMode: 0
      - serializedVersion: 2
        time: 11.399994
        value: -0
        inSlope: 0
        outSlope: 0
        tangentMode: 0
      - serializedVersion: 2
        time: 11.599994
        value: -0
        inSlope: 0
        outSlope: 0
        tangentMode: 0
      - serializedVersion: 2
        time: 11.7999935
        value: -0
        inSlope: 0
        outSlope: 0
        tangentMode: 0
      - serializedVersion: 2
        time: 12
        value: -0
        inSlope: 0
        outSlope: 0
        tangentMode: 0
      m_PreInfinity: 2
      m_PostInfinity: 2
      m_RotationOrder: 4
    attribute: m_LocalRotation.x
    path: 
    classID: 4
    script: {fileID: 0}
  - curve:
      serializedVersion: 2
      m_Curve:
      - serializedVersion: 2
        time: 0
        value: -0
        inSlope: -0.014078002
        outSlope: -0.014078002
        tangentMode: 0
      - serializedVersion: 2
        time: 0.2
        value: -0.0028156005
        inSlope: -0.027507275
        outSlope: -0.027507275
        tangentMode: 0
      - serializedVersion: 2
        time: 0.4
        value: -0.01100291
        inSlope: -0.053389236
        outSlope: -0.053389236
        tangentMode: 0
      - serializedVersion: 2
        time: 0.6
        value: -0.024171297
        inSlope: -0.07730758
        outSlope: -0.07730758
        tangentMode: 0
      - serializedVersion: 2
        time: 0.8
        value: -0.04192594
        inSlope: -0.0992329
        outSlope: -0.0992329
        tangentMode: 0
      - serializedVersion: 2
        time: 1
        value: -0.063864455
        inSlope: -0.1191193
        outSlope: -0.1191193
        tangentMode: 0
      - serializedVersion: 2
        time: 1.2
        value: -0.08957367
        inSlope: -0.13690655
        outSlope: -0.13690655
        tangentMode: 0
      - serializedVersion: 2
        time: 1.4000001
        value: -0.11862709
        inSlope: -0.15252498
        outSlope: -0.15252498
        tangentMode: 0
      - serializedVersion: 2
        time: 1.6000001
        value: -0.15058367
        inSlope: -0.16590218
        outSlope: -0.16590218
        tangentMode: 0
      - serializedVersion: 2
        time: 1.8000002
        value: -0.18498798
        inSlope: -0.17697066
        outSlope: -0.17697066
        tangentMode: 0
      - serializedVersion: 2
        time: 2.0000002
        value: -0.22137195
        inSlope: -0.18567562
        outSlope: -0.18567562
        tangentMode: 0
      - serializedVersion: 2
        time: 2.2000003
        value: -0.25925824
        inSlope: -0.19198294
        outSlope: -0.19198294
        tangentMode: 0
      - serializedVersion: 2
        time: 2.4000003
        value: -0.29816514
        inSlope: -0.19588518
        outSlope: -0.19588518
        tangentMode: 0
      - serializedVersion: 2
        time: 2.6000004
        value: -0.33761233
        inSlope: -0.19740681
        outSlope: -0.19740681
        tangentMode: 0
      - serializedVersion: 2
        time: 2.8000004
        value: -0.3771279
        inSlope: -0.19660796
        outSlope: -0.19660796
        tangentMode: 0
      - serializedVersion: 2
        time: 3.0000005
        value: -0.41625553
        inSlope: -0.19358459
        outSlope: -0.19358459
        tangentMode: 0
      - serializedVersion: 2
        time: 3.2000005
        value: -0.45456174
        inSlope: -0.18846753
        outSlope: -0.18846753
        tangentMode: 0
      - serializedVersion: 2
        time: 3.4000006
        value: -0.49164256
        inSlope: -0.18141884
        outSlope: -0.18141884
        tangentMode: 0
      - serializedVersion: 2
        time: 3.6000006
        value: -0.5271293
        inSlope: -0.172627
        outSlope: -0.172627
        tangentMode: 0
      - serializedVersion: 2
        time: 3.8000007
        value: -0.5606934
        inSlope: -0.162298
        outSlope: -0.162298
        tangentMode: 0
      - serializedVersion: 2
        time: 4.0000005
        value: -0.59204847
        inSlope: -0.15684009
        outSlope: -0.15684009
        tangentMode: 0
      - serializedVersion: 2
        time: 4.2000003
        value: -0.62342936
        inSlope: -0.16165331
        outSlope: -0.16165331
        tangentMode: 0
      - serializedVersion: 2
        time: 4.4
        value: -0.65670973
        inSlope: -0.1691726
        outSlope: -0.1691726
        tangentMode: 0
      - serializedVersion: 2
        time: 4.6
        value: -0.69109833
        inSlope: -0.17278628
        outSlope: -0.17278628
        tangentMode: 0
      - serializedVersion: 2
        time: 4.7999997
        value: -0.7258242
        inSlope: -0.1726398
        outSlope: -0.1726398
        tangentMode: 0
      - serializedVersion: 2
        time: 4.9999995
        value: -0.7601542
        inSlope: -0.16896875
        outSlope: -0.16896875
        tangentMode: 0
      - serializedVersion: 2
        time: 5.1999993
        value: -0.7934116
        inSlope: -0.1620999
        outSlope: -0.1620999
        tangentMode: 0
      - serializedVersion: 2
        time: 5.399999
        value: -0.8249941
        inSlope: -0.15244529
        outSlope: -0.15244529
        tangentMode: 0
      - serializedVersion: 2
        time: 5.599999
        value: -0.85438967
        inSlope: -0.14049082
        outSlope: -0.14049082
        tangentMode: 0
      - serializedVersion: 2
        time: 5.7999988
        value: -0.88119036
        inSlope: -0.12678024
        outSlope: -0.12678024
        tangentMode: 0
      - serializedVersion: 2
        time: 5.9999986
        value: -0.9051017
        inSlope: -0.11189546
        outSlope: -0.11189546
        tangentMode: 0
      - serializedVersion: 2
        time: 6.1999984
        value: -0.9259485
        inSlope: -0.0964331
        outSlope: -0.0964331
        tangentMode: 0
      - serializedVersion: 2
        time: 6.399998
        value: -0.9436749
        inSlope: -0.080977455
        outSlope: -0.080977455
        tangentMode: 0
      - serializedVersion: 2
        time: 6.599998
        value: -0.95833945
        inSlope: -0.06607419
        outSlope: -0.06607419
        tangentMode: 0
      - serializedVersion: 2
        time: 6.799998
        value: -0.9701046
        inSlope: -0.052206717
        outSlope: -0.052206717
        tangentMode: 0
      - serializedVersion: 2
        time: 6.9999976
        value: -0.9792221
        inSlope: -0.03977049
        outSlope: -0.03977049
        tangentMode: 0
      - serializedVersion: 2
        time: 7.1999974
        value: -0.98601276
        inSlope: -0.029050438
        outSlope: -0.029050438
        tangentMode: 0
      - serializedVersion: 2
        time: 7.399997
        value: -0.9908423
        inSlope: -0.020203162
        outSlope: -0.020203162
        tangentMode: 0
      - serializedVersion: 2
        time: 7.599997
        value: -0.994094
        inSlope: -0.0132388
        outSlope: -0.0132388
        tangentMode: 0
      - serializedVersion: 2
        time: 7.799997
        value: -0.9961378
        inSlope: -0.008006252
        outSlope: -0.008006252
        tangentMode: 0
      - serializedVersion: 2
        time: 7.9999967
        value: -0.9972965
        inSlope: -0.0047165155
        outSlope: -0.0047165155
        tangentMode: 0
      - serializedVersion: 2
        time: 8.199997
        value: -0.9980244
        inSlope: -0.0032828737
        outSlope: -0.0032828737
        tangentMode: 0
      - serializedVersion: 2
        time: 8.399997
        value: -0.99860966
        inSlope: -0.0026114308
        outSlope: -0.0026114308
        tangentMode: 0
      - serializedVersion: 2
        time: 8.599997
        value: -0.999069
        inSlope: -0.0020208973
        outSlope: -0.0020208973
        tangentMode: 0
      - serializedVersion: 2
        time: 8.799996
        value: -0.999418
        inSlope: -0.0015065088
        outSlope: -0.0015065088
        tangentMode: 0
      - serializedVersion: 2
        time: 8.999996
        value: -0.9996716
        inSlope: -0.0010637948
        outSlope: -0.0010637948
        tangentMode: 0
      - serializedVersion: 2
        time: 9.199996
        value: -0.99984354
        inSlope: -0.0006885833
        outSlope: -0.0006885833
        tangentMode: 0
      - serializedVersion: 2
        time: 9.399996
        value: -0.999947
        inSlope: -0.00037625467
        outSlope: -0.00037625467
        tangentMode: 0
      - serializedVersion: 2
        time: 9.599996
        value: -0.99999404
        inSlope: -0.00012233865
        outSlope: -0.00012233865
        tangentMode: 0
      - serializedVersion: 2
        time: 9.799995
        value: -0.99999595
        inSlope: 0.00007748611
        outSlope: 0.00007748611
        tangentMode: 0
      - serializedVersion: 2
        time: 9.999995
        value: -0.99996305
        inSlope: 0.000227988
        outSlope: 0.000227988
        tangentMode: 0
      - serializedVersion: 2
        time: 10.199995
        value: -0.99990475
        inSlope: 0.0003333393
        outSlope: 0.0003333393
        tangentMode: 0
      - serializedVersion: 2
        time: 10.399995
        value: -0.9998297
        inSlope: 0.0003981594
        outSlope: 0.0003981594
        tangentMode: 0
      - serializedVersion: 2
        time: 10.599995
        value: -0.9997455
        inSlope: 0.0004272167
        outSlope: 0.0004272167
        tangentMode: 0
      - serializedVersion: 2
        time: 10.799994
        value: -0.9996588
        inSlope: 0.0004246835
        outSlope: 0.0004246835
        tangentMode: 0
      - serializedVersion: 2
        time: 10.999994
        value: -0.9995756
        inSlope: 0.00039503016
        outSlope: 0.00039503016
        tangentMode: 0
      - serializedVersion: 2
        time: 11.199994
        value: -0.9995008
        inSlope: 0.00034302505
        outSlope: 0.00034302505
        tangentMode: 0
      - serializedVersion: 2
        time: 11.399994
        value: -0.9994384
        inSlope: 0.00027298954
        outSlope: 0.00027298954
        tangentMode: 0
      - serializedVersion: 2
        time: 11.599994
        value: -0.9993916
        inSlope: 0.00018954295
        outSlope: 0.00018954295
        tangentMode: 0
      - serializedVersion: 2
        time: 11.7999935
        value: -0.9993626
        inSlope: 0.00009700584
        outSlope: 0.00009700584
        tangentMode: 0
      - serializedVersion: 2
        time: 12
        value: -0.9993528
        inSlope: 0.000048874223
        outSlope: 0.000048874223
        tangentMode: 0
      m_PreInfinity: 2
      m_PostInfinity: 2
      m_RotationOrder: 4
    attribute: m_LocalRotation.y
    path: 
    classID: 4
    script: {fileID: 0}
  - curve:
      serializedVersion: 2
      m_Curve:
      - serializedVersion: 2
        time: 0
        value: -0
        inSlope: 0
        outSlope: 0
        tangentMode: 0
      - serializedVersion: 2
        time: 0.2
        value: -0
        inSlope: 0
        outSlope: 0
        tangentMode: 0
      - serializedVersion: 2
        time: 0.4
        value: -0
        inSlope: 0
        outSlope: 0
        tangentMode: 0
      - serializedVersion: 2
        time: 0.6
        value: -0
        inSlope: 0
        outSlope: 0
        tangentMode: 0
      - serializedVersion: 2
        time: 0.8
        value: -0
        inSlope: 0
        outSlope: 0
        tangentMode: 0
      - serializedVersion: 2
        time: 1
        value: -0
        inSlope: 0
        outSlope: 0
        tangentMode: 0
      - serializedVersion: 2
        time: 1.2
        value: -0
        inSlope: 0
        outSlope: 0
        tangentMode: 0
      - serializedVersion: 2
        time: 1.4000001
        value: -0
        inSlope: 0
        outSlope: 0
        tangentMode: 0
      - serializedVersion: 2
        time: 1.6000001
        value: -0
        inSlope: 0
        outSlope: 0
        tangentMode: 0
      - serializedVersion: 2
        time: 1.8000002
        value: -0
        inSlope: 0
        outSlope: 0
        tangentMode: 0
      - serializedVersion: 2
        time: 2.0000002
        value: -0
        inSlope: 0
        outSlope: 0
        tangentMode: 0
      - serializedVersion: 2
        time: 2.2000003
        value: -0
        inSlope: 0
        outSlope: 0
        tangentMode: 0
      - serializedVersion: 2
        time: 2.4000003
        value: -0
        inSlope: 0
        outSlope: 0
        tangentMode: 0
      - serializedVersion: 2
        time: 2.6000004
        value: -0
        inSlope: 0
        outSlope: 0
        tangentMode: 0
      - serializedVersion: 2
        time: 2.8000004
        value: -0
        inSlope: 0
        outSlope: 0
        tangentMode: 0
      - serializedVersion: 2
        time: 3.0000005
        value: -0
        inSlope: 0
        outSlope: 0
        tangentMode: 0
      - serializedVersion: 2
        time: 3.2000005
        value: -0
        inSlope: 0
        outSlope: 0
        tangentMode: 0
      - serializedVersion: 2
        time: 3.4000006
        value: -0
        inSlope: 0
        outSlope: 0
        tangentMode: 0
      - serializedVersion: 2
        time: 3.6000006
        value: -0
        inSlope: 0
        outSlope: 0
        tangentMode: 0
      - serializedVersion: 2
        time: 3.8000007
        value: -0
        inSlope: 0
        outSlope: 0
        tangentMode: 0
      - serializedVersion: 2
        time: 4.0000005
        value: -0
        inSlope: 0
        outSlope: 0
        tangentMode: 0
      - serializedVersion: 2
        time: 4.2000003
        value: -0
        inSlope: 0
        outSlope: 0
        tangentMode: 0
      - serializedVersion: 2
        time: 4.4
        value: -0
        inSlope: 0
        outSlope: 0
        tangentMode: 0
      - serializedVersion: 2
        time: 4.6
        value: -0
        inSlope: 0
        outSlope: 0
        tangentMode: 0
      - serializedVersion: 2
        time: 4.7999997
        value: -0
        inSlope: 0
        outSlope: 0
        tangentMode: 0
      - serializedVersion: 2
        time: 4.9999995
        value: -0
        inSlope: 0
        outSlope: 0
        tangentMode: 0
      - serializedVersion: 2
        time: 5.1999993
        value: -0
        inSlope: 0
        outSlope: 0
        tangentMode: 0
      - serializedVersion: 2
        time: 5.399999
        value: -0
        inSlope: 0
        outSlope: 0
        tangentMode: 0
      - serializedVersion: 2
        time: 5.599999
        value: -0
        inSlope: 0
        outSlope: 0
        tangentMode: 0
      - serializedVersion: 2
        time: 5.7999988
        value: -0
        inSlope: 0
        outSlope: 0
        tangentMode: 0
      - serializedVersion: 2
        time: 5.9999986
        value: -0
        inSlope: 0
        outSlope: 0
        tangentMode: 0
      - serializedVersion: 2
        time: 6.1999984
        value: -0
        inSlope: 0
        outSlope: 0
        tangentMode: 0
      - serializedVersion: 2
        time: 6.399998
        value: -0
        inSlope: 0
        outSlope: 0
        tangentMode: 0
      - serializedVersion: 2
        time: 6.599998
        value: -0
        inSlope: 0
        outSlope: 0
        tangentMode: 0
      - serializedVersion: 2
        time: 6.799998
        value: -0
        inSlope: 0
        outSlope: 0
        tangentMode: 0
      - serializedVersion: 2
        time: 6.9999976
        value: -0
        inSlope: 0
        outSlope: 0
        tangentMode: 0
      - serializedVersion: 2
        time: 7.1999974
        value: -0
        inSlope: 0
        outSlope: 0
        tangentMode: 0
      - serializedVersion: 2
        time: 7.399997
        value: -0
        inSlope: 0
        outSlope: 0
        tangentMode: 0
      - serializedVersion: 2
        time: 7.599997
        value: -0
        inSlope: 0
        outSlope: 0
        tangentMode: 0
      - serializedVersion: 2
        time: 7.799997
        value: -0
        inSlope: 0
        outSlope: 0
        tangentMode: 0
      - serializedVersion: 2
        time: 7.9999967
        value: -0
        inSlope: 0
        outSlope: 0
        tangentMode: 0
      - serializedVersion: 2
        time: 8.199997
        value: -0
        inSlope: 0
        outSlope: 0
        tangentMode: 0
      - serializedVersion: 2
        time: 8.399997
        value: -0
        inSlope: 0
        outSlope: 0
        tangentMode: 0
      - serializedVersion: 2
        time: 8.599997
        value: -0
        inSlope: 0
        outSlope: 0
        tangentMode: 0
      - serializedVersion: 2
        time: 8.799996
        value: -0
        inSlope: 0
        outSlope: 0
        tangentMode: 0
      - serializedVersion: 2
        time: 8.999996
        value: -0
        inSlope: 0
        outSlope: 0
        tangentMode: 0
      - serializedVersion: 2
        time: 9.199996
        value: -0
        inSlope: 0
        outSlope: 0
        tangentMode: 0
      - serializedVersion: 2
        time: 9.399996
        value: -0
        inSlope: 0
        outSlope: 0
        tangentMode: 0
      - serializedVersion: 2
        time: 9.599996
        value: -0
        inSlope: 0
        outSlope: 0
        tangentMode: 0
      - serializedVersion: 2
        time: 9.799995
        value: -0
        inSlope: 0
        outSlope: 0
        tangentMode: 0
      - serializedVersion: 2
        time: 9.999995
        value: -0
        inSlope: 0
        outSlope: 0
        tangentMode: 0
      - serializedVersion: 2
        time: 10.199995
        value: -0
        inSlope: 0
        outSlope: 0
        tangentMode: 0
      - serializedVersion: 2
        time: 10.399995
        value: -0
        inSlope: 0
        outSlope: 0
        tangentMode: 0
      - serializedVersion: 2
        time: 10.599995
        value: -0
        inSlope: 0
        outSlope: 0
        tangentMode: 0
      - serializedVersion: 2
        time: 10.799994
        value: -0
        inSlope: 0
        outSlope: 0
        tangentMode: 0
      - serializedVersion: 2
        time: 10.999994
        value: -0
        inSlope: 0
        outSlope: 0
        tangentMode: 0
      - serializedVersion: 2
        time: 11.199994
        value: -0
        inSlope: 0
        outSlope: 0
        tangentMode: 0
      - serializedVersion: 2
        time: 11.399994
        value: -0
        inSlope: 0
        outSlope: 0
        tangentMode: 0
      - serializedVersion: 2
        time: 11.599994
        value: -0
        inSlope: 0
        outSlope: 0
        tangentMode: 0
      - serializedVersion: 2
        time: 11.7999935
        value: -0
        inSlope: 0
        outSlope: 0
        tangentMode: 0
      - serializedVersion: 2
        time: 12
        value: -0
        inSlope: 0
        outSlope: 0
        tangentMode: 0
      m_PreInfinity: 2
      m_PostInfinity: 2
      m_RotationOrder: 4
    attribute: m_LocalRotation.z
    path: 
    classID: 4
    script: {fileID: 0}
  - curve:
      serializedVersion: 2
      m_Curve:
      - serializedVersion: 2
        time: 0
        value: -1
        inSlope: 0.000019967556
        outSlope: 0.000019967556
        tangentMode: 0
      - serializedVersion: 2
        time: 0.2
        value: -0.999996
        inSlope: 0.0001513958
        outSlope: 0.0001513958
        tangentMode: 0
      - serializedVersion: 2
        time: 0.4
        value: -0.99993944
        inSlope: 0.0007204711
        outSlope: 0.0007204711
        tangentMode: 0
      - serializedVersion: 2
        time: 0.6
        value: -0.9997078
        inSlope: 0.0020468235
        outSlope: 0.0020468235
        tangentMode: 0
      - serializedVersion: 2
        time: 0.8
        value: -0.9991207
        inSlope: 0.0043730442
        outSlope: 0.0043730442
        tangentMode: 0
      - serializedVersion: 2
        time: 1
        value: -0.9979586
        inSlope: 0.007851272
        outSlope: 0.007851272
        tangentMode: 0
      - serializedVersion: 2
        time: 1.2
        value: -0.9959802
        inSlope: 0.012549307
        outSlope: 0.012549307
        tangentMode: 0
      - serializedVersion: 2
        time: 1.4000001
        value: -0.9929389
        inSlope: 0.01845732
        outSlope: 0.01845732
        tangentMode: 0
      - serializedVersion: 2
        time: 1.6000001
        value: -0.9885973
        inSlope: 0.025495283
        outSlope: 0.025495283
        tangentMode: 0
      - serializedVersion: 2
        time: 1.8000002
        value: -0.98274076
        inSlope: 0.03351956
        outSlope: 0.03351956
        tangentMode: 0
      - serializedVersion: 2
        time: 2.0000002
        value: -0.97518945
        inSlope: 0.042331807
        outSlope: 0.042331807
        tangentMode: 0
      - serializedVersion: 2
        time: 2.2000003
        value: -0.96580803
        inSlope: 0.051687792
        outSlope: 0.051687792
        tangentMode: 0
      - serializedVersion: 2
        time: 2.4000003
        value: -0.9545143
        inSlope: 0.06130694
        outSlope: 0.06130694
        tangentMode: 0
      - serializedVersion: 2
        time: 2.6000004
        value: -0.94128525
        inSlope: 0.07088287
        outSlope: 0.07088287
        tangentMode: 0
      - serializedVersion: 2
        time: 2.8000004
        value: -0.92616117
        inSlope: 0.080093876
        outSlope: 0.080093876
        tangentMode: 0
      - serializedVersion: 2
        time: 3.0000005
        value: -0.9092477
        inSlope: 0.0886148
        outSlope: 0.0886148
        tangentMode: 0
      - serializedVersion: 2
        time: 3.2000005
        value: -0.89071524
        inSlope: 0.096126474
        outSlope: 0.096126474
        tangentMode: 0
      - serializedVersion: 2
        time: 3.4000006
        value: -0.8707971
        inSlope: 0.10232536
        outSlope: 0.10232536
        tangentMode: 0
      - serializedVersion: 2
        time: 3.6000006
        value: -0.8497851
        inSlope: 0.10693399
        outSlope: 0.10693399
        tangentMode: 0
      - serializedVersion: 2
        time: 3.8000007
        value: -0.8280235
        inSlope: 0.109706864
        outSlope: 0.109706864
        tangentMode: 0
      - serializedVersion: 2
        time: 4.0000005
        value: -0.80590236
        inSlope: 0.11535953
        outSlope: 0.11535953
        tangentMode: 0
      - serializedVersion: 2
        time: 4.2000003
        value: -0.7818797
        inSlope: 0.12939733
        outSlope: 0.12939733
        tangentMode: 0
      - serializedVersion: 2
        time: 4.4
        value: -0.7541435
        inSlope: 0.14779761
        outSlope: 0.14779761
        tangentMode: 0
      - serializedVersion: 2
        time: 4.6
        value: -0.72276074
        inSlope: 0.16565815
        outSlope: 0.16565815
        tangentMode: 0
      - serializedVersion: 2
        time: 4.7999997
        value: -0.6878803
        inSlope: 0.18254521
        outSlope: 0.18254521
        tangentMode: 0
      - serializedVersion: 2
        time: 4.9999995
        value: -0.6497427
        inSlope: 0.19798714
        outSlope: 0.19798714
        tangentMode: 0
      - serializedVersion: 2
        time: 5.1999993
        value: -0.6086855
        inSlope: 0.21150371
        outSlope: 0.21150371
        tangentMode: 0
      - serializedVersion: 2
        time: 5.399999
        value: -0.5651413
        inSlope: 0.2226319
        outSlope: 0.2226319
        tangentMode: 0
      - serializedVersion: 2
        time: 5.599999
        value: -0.5196328
        inSlope: 0.23094937
        outSlope: 0.23094937
        tangentMode: 0
      - serializedVersion: 2
        time: 5.7999988
        value: -0.47276166
        inSlope: 0.23609444
        outSlope: 0.23609444
        tangentMode: 0
      - serializedVersion: 2
        time: 5.9999986
        value: -0.42519513
        inSlope: 0.23777992
        outSlope: 0.23777992
        tangentMode: 0
      - serializedVersion: 2
        time: 6.1999984
        value: -0.37764978
        inSlope: 0.23580313
        outSlope: 0.23580313
        tangentMode: 0
      - serializedVersion: 2
        time: 6.399998
        value: -0.33087397
        inSlope: 0.23004508
        outSlope: 0.23004508
        tangentMode: 0
      - serializedVersion: 2
        time: 6.599998
        value: -0.28563184
        inSlope: 0.22046714
        outSlope: 0.22046714
        tangentMode: 0
      - serializedVersion: 2
        time: 6.799998
        value: -0.2426872
        inSlope: 0.20710328
        outSlope: 0.20710328
        tangentMode: 0
      - serializedVersion: 2
        time: 6.9999976
        value: -0.2027906
        inSlope: 0.19004318
        outSlope: 0.19004318
        tangentMode: 0
      - serializedVersion: 2
        time: 7.1999974
        value: -0.16667
        inSlope: 0.16941549
        outSlope: 0.16941549
        tangentMode: 0
      - serializedVersion: 2
        time: 7.399997
        value: -0.13502447
        inSlope: 0.14536873
        outSlope: 0.14536873
        tangentMode: 0
      - serializedVersion: 2
        time: 7.599997
        value: -0.10852256
        inSlope: 0.118052006
        outSlope: 0.118052006
        tangentMode: 0
      - serializedVersion: 2
        time: 7.799997
        value: -0.087803714
        inSlope: 0.087601215
        outSlope: 0.087601215
        tangentMode: 0
      - serializedVersion: 2
        time: 7.9999967
        value: -0.0734821
        inSlope: 0.062439624
        outSlope: 0.062439624
        tangentMode: 0
      - serializedVersion: 2
        time: 8.199997
        value: -0.06282786
        inSlope: 0.051921584
        outSlope: 0.051921584
        tangentMode: 0
      - serializedVersion: 2
        time: 8.399997
        value: -0.052713465
        inSlope: 0.0492174
        outSlope: 0.0492174
        tangentMode: 0
      - serializedVersion: 2
        time: 8.599997
        value: -0.04314092
        inSlope: 0.046504922
        outSlope: 0.046504922
        tangentMode: 0
      - serializedVersion: 2
        time: 8.799996
        value: -0.034111515
        inSlope: 0.043785073
        outSlope: 0.043785073
        tangentMode: 0
      - serializedVersion: 2
        time: 8.999996
        value: -0.025626909
        inSlope: 0.04105877
        outSlope: 0.04105877
        tangentMode: 0
      - serializedVersion: 2
        time: 9.199996
        value: -0.017688023
        inSlope: 0.038327903
        outSlope: 0.038327903
        tangentMode: 0
      - serializedVersion: 2
        time: 9.399996
        value: -0.010295762
        inSlope: 0.035594232
        outSlope: 0.035594232
        tangentMode: 0
      - serializedVersion: 2
        time: 9.599996
        value: -0.0034503432
        inSlope: 0.03285812
        outSlope: 0.03285812
        tangentMode: 0
      - serializedVersion: 2
        time: 9.799995
        value: 0.002847473
        inSlope: 0.03012006
        outSlope: 0.03012006
        tangentMode: 0
      - serializedVersion: 2
        time: 9.999995
        value: 0.008597669
        inSlope: 0.027381018
        outSlope: 0.027381018
        tangentMode: 0
      - serializedVersion: 2
        time: 10.199995
        value: 0.013799869
        inSlope: 0.024641506
        outSlope: 0.024641506
        tangentMode: 0
      - serializedVersion: 2
        time: 10.399995
        value: 0.018454263
        inSlope: 0.021901932
        outSlope: 0.021901932
        tangentMode: 0
      - serializedVersion: 2
        time: 10.599995
        value: 0.022560634
        inSlope: 0.019162577
        outSlope: 0.019162577
        tangentMode: 0
      - serializedVersion: 2
        time: 10.799994
        value: 0.026119286
        inSlope: 0.016423922
        outSlope: 0.016423922
        tangentMode: 0
      - serializedVersion: 2
        time: 10.999994
        value: 0.029130196
        inSlope: 0.013685179
        outSlope: 0.013685179
        tangentMode: 0
      - serializedVersion: 2
        time: 11.199994
        value: 0.031593353
        inSlope: 0.010947283
        outSlope: 0.010947283
        tangentMode: 0
      - serializedVersion: 2
        time: 11.399994
        value: 0.033509105
        inSlope: 0.008210184
        outSlope: 0.008210184
        tangentMode: 0
      - serializedVersion: 2
        time: 11.599994
        value: 0.034877423
        inSlope: 0.0054734903
        outSlope: 0.0054734903
        tangentMode: 0
      - serializedVersion: 2
        time: 11.7999935
        value: 0.0356985
        inSlope: 0.0027364942
        outSlope: 0.0027364942
        tangentMode: 0
      - serializedVersion: 2
        time: 12
        value: 0.03597203
        inSlope: 0.0013676028
        outSlope: 0.0013676028
        tangentMode: 0
      m_PreInfinity: 2
      m_PostInfinity: 2
      m_RotationOrder: 4
    attribute: m_LocalRotation.w
    path: 
    classID: 4
    script: {fileID: 0}
  m_EulerEditorCurves:
  - curve:
      serializedVersion: 2
      m_Curve:
      - serializedVersion: 2
        time: 0
        value: 0
        inSlope: 0
        outSlope: 0
        tangentMode: 136
      - serializedVersion: 2
        time: 4
        value: 0
        inSlope: 0
        outSlope: 0
        tangentMode: 136
      - serializedVersion: 2
        time: 8
        value: 0
        inSlope: 0
        outSlope: 0
        tangentMode: 136
      - serializedVersion: 2
        time: 12
        value: 0
        inSlope: 0
        outSlope: 0
        tangentMode: 136
      m_PreInfinity: 2
      m_PostInfinity: 2
      m_RotationOrder: 4
    attribute: localEulerAnglesBaked.x
    path: 
    classID: 4
    script: {fileID: 0}
  - curve:
      serializedVersion: 2
      m_Curve:
      - serializedVersion: 2
        time: 0
        value: 0
        inSlope: 0
        outSlope: 0
        tangentMode: 136
      - serializedVersion: 2
        time: 4
        value: 72.605
        inSlope: 21.4465
        outSlope: 21.4465
        tangentMode: 136
      - serializedVersion: 2
        time: 8
        value: 171.572
        inSlope: 6.275491
        outSlope: 6.275491
        tangentMode: 136
      - serializedVersion: 2
        time: 12
        value: 184.12299
        inSlope: 0
        outSlope: 0
        tangentMode: 136
      m_PreInfinity: 2
      m_PostInfinity: 2
      m_RotationOrder: 4
    attribute: localEulerAnglesBaked.y
    path: 
    classID: 4
    script: {fileID: 0}
  - curve:
      serializedVersion: 2
      m_Curve:
      - serializedVersion: 2
        time: 0
        value: 0
        inSlope: 0
        outSlope: 0
        tangentMode: 136
      - serializedVersion: 2
        time: 4
        value: 0
        inSlope: 0
        outSlope: 0
        tangentMode: 136
      - serializedVersion: 2
        time: 8
        value: 0
        inSlope: 0
        outSlope: 0
        tangentMode: 136
      - serializedVersion: 2
        time: 12
        value: 0
        inSlope: 0
        outSlope: 0
        tangentMode: 136
      m_PreInfinity: 2
      m_PostInfinity: 2
      m_RotationOrder: 4
    attribute: localEulerAnglesBaked.z
    path: 
    classID: 4
    script: {fileID: 0}
  m_HasGenericRootTransform: 0
  m_HasMotionFloatCurves: 0
  m_GenerateMotionCurves: 0
  m_Events: []
