%YAML 1.1
%TAG !u! tag:unity3d.com,2011:
--- !u!74 &7400000
AnimationClip:
  m_ObjectHideFlags: 0
  m_PrefabParentObject: {fileID: 0}
  m_PrefabInternal: {fileID: 0}
  m_Name: Intro5Anim
  serializedVersion: 6
  m_Legacy: 1
  m_Compressed: 0
  m_UseHighQualityCurve: 1
  m_RotationCurves:
  - curve:
      serializedVersion: 2
      m_Curve:
      - serializedVersion: 2
        time: 0
        value: {x: 0, y: 0, z: 0, w: 1}
        inSlope: {x: 0, y: 0.0028470682, z: 0, w: -0.0000008940697}
        outSlope: {x: 0, y: 0.0028470682, z: 0, w: -0.0000008940697}
        tangentMode: 0
      - serializedVersion: 2
        time: 0.2
        value: {x: 0, y: 0.00056941365, z: 0, w: 0.9999998}
        inSlope: {x: 0, y: 0.0054977834, z: 0, w: -0.000006109476}
        outSlope: {x: 0, y: 0.0054977834, z: 0, w: -0.000006109476}
        tangentMode: 0
      - serializedVersion: 2
        time: 0.4
        value: {x: 0, y: 0.0021991134, z: 0, w: 0.99999756}
        inSlope: {x: 0, y: 0.010504656, z: 0, w: -0.000028014181}
        outSlope: {x: 0, y: 0.010504656, z: 0, w: -0.000028014181}
        tangentMode: 0
      - serializedVersion: 2
        time: 0.6
        value: {x: 0, y: 0.004771276, z: 0, w: 0.9999886}
        inSlope: {x: 0, y: 0.0149223395, z: 0, w: -0.00007733703}
        outSlope: {x: 0, y: 0.0149223395, z: 0, w: -0.00007733703}
        tangentMode: 0
      - serializedVersion: 2
        time: 0.8
        value: {x: 0, y: 0.008168049, z: 0, w: 0.9999666}
        inSlope: {x: 0, y: 0.018750656, z: 0, w: -0.00015974046}
        outSlope: {x: 0, y: 0.018750656, z: 0, w: -0.00015974046}
        tangentMode: 0
      - serializedVersion: 2
        time: 1
        value: {x: 0, y: 0.012271538, z: 0, w: 0.9999247}
        inSlope: {x: 0, y: 0.02198935, z: 0, w: -0.0002762675}
        outSlope: {x: 0, y: 0.02198935, z: 0, w: -0.0002762675}
        tangentMode: 0
      - serializedVersion: 2
        time: 1.2
        value: {x: 0, y: 0.01696379, z: 0, w: 0.9998561}
        inSlope: {x: 0, y: 0.024638124, z: 0, w: -0.00042393792}
        outSlope: {x: 0, y: 0.024638124, z: 0, w: -0.00042393792}
        tangentMode: 0
      - serializedVersion: 2
        time: 1.4000001
        value: {x: 0, y: 0.02212679, z: 0, w: 0.99975514}
        inSlope: {x: 0, y: 0.026696764, z: 0, w: -0.0005955993}
        outSlope: {x: 0, y: 0.026696764, z: 0, w: -0.0005955993}
        tangentMode: 0
      - serializedVersion: 2
        time: 1.6000001
        value: {x: 0, y: 0.027642498, z: 0, w: 0.9996179}
        inSlope: {x: 0, y: 0.028165152, z: 0, w: -0.0007821617}
        outSlope: {x: 0, y: 0.028165152, z: 0, w: -0.0007821617}
        tangentMode: 0
      - serializedVersion: 2
        time: 1.8000002
        value: {x: 0, y: 0.033392854, z: 0, w: 0.9994423}
        inSlope: {x: 0, y: 0.02904331, z: 0, w: -0.0009721515}
        outSlope: {x: 0, y: 0.02904331, z: 0, w: -0.0009721515}
        tangentMode: 0
      - serializedVersion: 2
        time: 2.0000002
        value: {x: 0, y: 0.039259825, z: 0, w: 0.999229}
        inSlope: {x: 0, y: 0.029331448, z: 0, w: -0.0011523066}
        outSlope: {x: 0, y: 0.029331448, z: 0, w: -0.0011523066}
        tangentMode: 0
      - serializedVersion: 2
        time: 2.2000003
        value: {x: 0, y: 0.045125436, z: 0, w: 0.99898136}
        inSlope: {x: 0, y: 0.029030034, z: 0, w: -0.0013095137}
        outSlope: {x: 0, y: 0.029030034, z: 0, w: -0.0013095137}
        tangentMode: 0
      - serializedVersion: 2
        time: 2.4000003
        value: {x: 0, y: 0.05087184, z: 0, w: 0.9987052}
        inSlope: {x: 0, y: 0.028139709, z: 0, w: -0.0014300641}
        outSlope: {x: 0, y: 0.028139709, z: 0, w: -0.0014300641}
        tangentMode: 0
      - serializedVersion: 2
        time: 2.6000004
        value: {x: 0, y: 0.056381322, z: 0, w: 0.99840933}
        inSlope: {x: 0, y: 0.026661199, z: 0, w: -0.0015008446}
        outSlope: {x: 0, y: 0.026661199, z: 0, w: -0.0015008446}
        tangentMode: 0
      - serializedVersion: 2
        time: 2.8000004
        value: {x: 0, y: 0.061536323, z: 0, w: 0.9981049}
        inSlope: {x: 0, y: 0.024595423, z: 0, w: -0.0015106794}
        outSlope: {x: 0, y: 0.024595423, z: 0, w: -0.0015106794}
        tangentMode: 0
      - serializedVersion: 2
        time: 3.0000005
        value: {x: 0, y: 0.066219494, z: 0, w: 0.99780506}
        inSlope: {x: 0, y: 0.02194323, z: 0, w: -0.0014498826}
        outSlope: {x: 0, y: 0.02194323, z: 0, w: -0.0014498826}
        tangentMode: 0
      - serializedVersion: 2
        time: 3.2000005
        value: {x: 0, y: 0.07031362, z: 0, w: 0.9975249}
        inSlope: {x: 0, y: 0.01870535, z: 0, w: -0.0013117489}
        outSlope: {x: 0, y: 0.01870535, z: 0, w: -0.0013117489}
        tangentMode: 0
      - serializedVersion: 2
        time: 3.4000006
        value: {x: 0, y: 0.073701635, z: 0, w: 0.99728036}
        inSlope: {x: 0, y: 0.014882419, z: 0, w: -0.001093596}
        outSlope: {x: 0, y: 0.014882419, z: 0, w: -0.001093596}
        tangentMode: 0
      - serializedVersion: 2
        time: 3.6000006
        value: {x: 0, y: 0.07626659, z: 0, w: 0.9970875}
        inSlope: {x: 0, y: 0.010474509, z: 0, w: -0.0007963178}
        outSlope: {x: 0, y: 0.010474509, z: 0, w: -0.0007963178}
        tangentMode: 0
      - serializedVersion: 2
        time: 3.8000007
        value: {x: 0, y: 0.07789144, z: 0, w: 0.99696183}
        inSlope: {x: 0, y: 0.005481281, z: 0, w: -0.00042542818}
        outSlope: {x: 0, y: 0.005481281, z: 0, w: -0.00042542818}
        tangentMode: 0
      - serializedVersion: 2
        time: 4.0000005
        value: {x: 0, y: 0.0784591, z: 0, w: 0.9969173}
        inSlope: {x: 0, y: -0.000000037252903, z: 0, w: 0}
        outSlope: {x: 0, y: -0.000000037252903, z: 0, w: 0}
        tangentMode: 0
      - serializedVersion: 2
        time: 4.2000003
        value: {x: 0, y: 0.077891424, z: 0, w: 0.99696183}
        inSlope: {x: 0, y: -0.005481304, z: 0, w: 0.00042542856}
        outSlope: {x: 0, y: -0.005481304, z: 0, w: 0.00042542856}
        tangentMode: 0
      - serializedVersion: 2
        time: 4.4
        value: {x: 0, y: 0.07626658, z: 0, w: 0.9970875}
        inSlope: {x: 0, y: -0.010474483, z: 0, w: 0.0007963188}
        outSlope: {x: 0, y: -0.010474483, z: 0, w: 0.0007963188}
        tangentMode: 0
      - serializedVersion: 2
        time: 4.6
        value: {x: 0, y: 0.073701635, z: 0, w: 0.99728036}
        inSlope: {x: 0, y: -0.014882419, z: 0, w: 0.0010935973}
        outSlope: {x: 0, y: -0.014882419, z: 0, w: 0.0010935973}
        tangentMode: 0
      - serializedVersion: 2
        time: 4.7999997
        value: {x: 0, y: 0.07031362, z: 0, w: 0.9975249}
        inSlope: {x: 0, y: -0.018705372, z: 0, w: 0.0013117504}
        outSlope: {x: 0, y: -0.018705372, z: 0, w: 0.0013117504}
        tangentMode: 0
      - serializedVersion: 2
        time: 4.9999995
        value: {x: 0, y: 0.066219494, z: 0, w: 0.99780506}
        inSlope: {x: 0, y: -0.021943247, z: 0, w: 0.0014498844}
        outSlope: {x: 0, y: -0.021943247, z: 0, w: 0.0014498844}
        tangentMode: 0
      - serializedVersion: 2
        time: 5.1999993
        value: {x: 0, y: 0.061536327, z: 0, w: 0.9981049}
        inSlope: {x: 0, y: -0.024595432, z: 0, w: 0.0015106811}
        outSlope: {x: 0, y: -0.024595432, z: 0, w: 0.0015106811}
        tangentMode: 0
      - serializedVersion: 2
        time: 5.399999
        value: {x: 0, y: 0.05638133, z: 0, w: 0.99840933}
        inSlope: {x: 0, y: -0.026661184, z: 0, w: 0.0015008464}
        outSlope: {x: 0, y: -0.026661184, z: 0, w: 0.0015008464}
        tangentMode: 0
      - serializedVersion: 2
        time: 5.599999
        value: {x: 0, y: 0.050871864, z: 0, w: 0.9987052}
        inSlope: {x: 0, y: -0.028139688, z: 0, w: 0.0014300658}
        outSlope: {x: 0, y: -0.028139688, z: 0, w: 0.0014300658}
        tangentMode: 0
      - serializedVersion: 2
        time: 5.7999988
        value: {x: 0, y: 0.045125466, z: 0, w: 0.99898136}
        inSlope: {x: 0, y: -0.029030042, z: 0, w: 0.0013095152}
        outSlope: {x: 0, y: -0.029030042, z: 0, w: 0.0013095152}
        tangentMode: 0
      - serializedVersion: 2
        time: 5.9999986
        value: {x: 0, y: 0.03925986, z: 0, w: 0.999229}
        inSlope: {x: 0, y: -0.029331455, z: 0, w: 0.001152308}
        outSlope: {x: 0, y: -0.029331455, z: 0, w: 0.001152308}
        tangentMode: 0
      - serializedVersion: 2
        time: 6.1999984
        value: {x: 0, y: 0.033392895, z: 0, w: 0.9994423}
        inSlope: {x: 0, y: -0.029043313, z: 0, w: 0.0009721527}
        outSlope: {x: 0, y: -0.029043313, z: 0, w: 0.0009721527}
        tangentMode: 0
      - serializedVersion: 2
        time: 6.399998
        value: {x: 0, y: 0.027642544, z: 0, w: 0.9996179}
        inSlope: {x: 0, y: -0.028165154, z: 0, w: 0.00078216265}
        outSlope: {x: 0, y: -0.028165154, z: 0, w: 0.00078216265}
        tangentMode: 0
      - serializedVersion: 2
        time: 6.599998
        value: {x: 0, y: 0.022126844, z: 0, w: 0.99975514}
        inSlope: {x: 0, y: -0.026696779, z: 0, w: 0.0005956}
        outSlope: {x: 0, y: -0.026696779, z: 0, w: 0.0005956}
        tangentMode: 0
      - serializedVersion: 2
        time: 6.799998
        value: {x: 0, y: 0.016963843, z: 0, w: 0.9998561}
        inSlope: {x: 0, y: -0.024638154, z: 0, w: 0.00042393844}
        outSlope: {x: 0, y: -0.024638154, z: 0, w: 0.00042393844}
        tangentMode: 0
      - serializedVersion: 2
        time: 6.9999976
        value: {x: 0, y: 0.012271592, z: 0, w: 0.9999247}
        inSlope: {x: 0, y: -0.021989383, z: 0, w: 0.0002762678}
        outSlope: {x: 0, y: -0.021989383, z: 0, w: 0.0002762678}
        tangentMode: 0
      - serializedVersion: 2
        time: 7.1999974
        value: {x: 0, y: 0.0081680985, z: 0, w: 0.9999666}
        inSlope: {x: 0, y: -0.018750705, z: 0, w: 0.0001597406}
        outSlope: {x: 0, y: -0.018750705, z: 0, w: 0.0001597406}
        tangentMode: 0
      - serializedVersion: 2
        time: 7.399997
        value: {x: 0, y: 0.004771318, z: 0, w: 0.9999886}
        inSlope: {x: 0, y: -0.014922377, z: 0, w: 0.0000773371}
        outSlope: {x: 0, y: -0.014922377, z: 0, w: 0.0000773371}
        tangentMode: 0
      - serializedVersion: 2
        time: 7.599997
        value: {x: 0, y: 0.0021991534, z: 0, w: 0.99999756}
        inSlope: {x: 0, y: -0.010504741, z: 0, w: 0.00002801421}
        outSlope: {x: 0, y: -0.010504741, z: 0, w: 0.00002801421}
        tangentMode: 0
      - serializedVersion: 2
        time: 7.799997
        value: {x: 0, y: 0.0005694254, z: 0, w: 0.9999998}
        inSlope: {x: 0, y: -0.0054978887, z: 0, w: 0.000006109482}
        outSlope: {x: 0, y: -0.0054978887, z: 0, w: 0.000006109482}
        tangentMode: 0
      - serializedVersion: 2
        time: 7.9999967
        value: {x: 0, y: 0, z: 0, w: 1}
        inSlope: {x: 0.014234816, y: -0.0014235649, z: 0, w: -0.000040084065}
        outSlope: {x: 0.014234816, y: -0.0014235649, z: 0, w: -0.000040084065}
        tangentMode: 0
      - serializedVersion: 2
        time: 8.199997
        value: {x: 0.0056939344, y: 0, z: 0, w: 0.9999838}
        inSlope: {x: 0.054972596, y: 0, z: 0, w: -0.0006045406}
        outSlope: {x: 0.054972596, y: 0, z: 0, w: -0.0006045406}
        tangentMode: 0
      - serializedVersion: 2
        time: 8.399997
        value: {x: 0.021989033, y: 0, z: 0, w: 0.9997582}
        inSlope: {x: 0.10500106, y: 0, z: 0, w: -0.00280455}
        outSlope: {x: 0.10500106, y: 0, z: 0, w: -0.00280455}
        tangentMode: 0
      - serializedVersion: 2
        time: 8.599997
        value: {x: 0.047694318, y: 0, z: 0, w: 0.99886197}
        inSlope: {x: 0.14900239, y: 0, z: 0, w: -0.007730581}
        outSlope: {x: 0.14900239, y: 0, z: 0, w: -0.007730581}
        tangentMode: 0
      - serializedVersion: 2
        time: 8.799996
        value: {x: 0.08158993, y: 0, z: 0, w: 0.99666595}
        inSlope: {x: 0.18678898, y: 0, z: 0, w: -0.01595588}
        outSlope: {x: 0.18678898, y: 0, z: 0, w: -0.01595588}
        tangentMode: 0
      - serializedVersion: 2
        time: 8.999996
        value: {x: 0.122409835, y: 0, z: 0, w: 0.9924796}
        inSlope: {x: 0.21810655, y: 0, z: 0, w: -0.027553018}
        outSlope: {x: 0.21810655, y: 0, z: 0, w: -0.027553018}
        tangentMode: 0
      - serializedVersion: 2
        time: 9.199996
        value: {x: 0.16883247, y: 0, z: 0, w: 0.98564476}
        inSlope: {x: 0.24268386, y: 0, z: 0, w: -0.042158406}
        outSlope: {x: 0.24268386, y: 0, z: 0, w: -0.042158406}
        tangentMode: 0
      - serializedVersion: 2
        time: 9.399996
        value: {x: 0.21948329, y: 0, z: 0, w: 0.9756163}
        inSlope: {x: 0.26029593, y: 0, z: 0, w: -0.059041888}
        outSlope: {x: 0.26029593, y: 0, z: 0, w: -0.059041888}
        tangentMode: 0
      - serializedVersion: 2
        time: 9.599996
        value: {x: 0.27295074, y: 0, z: 0, w: 0.962028}
        inSlope: {x: 0.2708282, y: 0, z: 0, w: -0.07718541}
        outSlope: {x: 0.2708282, y: 0, z: 0, w: -0.07718541}
        tangentMode: 0
      - serializedVersion: 2
        time: 9.799995
        value: {x: 0.32781446, y: 0, z: 0, w: 0.94474214}
        inSlope: {x: 0.27432877, y: 0, z: 0, w: -0.095370054}
        outSlope: {x: 0.27432877, y: 0, z: 0, w: -0.095370054}
        tangentMode: 0
      - serializedVersion: 2
        time: 9.999995
        value: {x: 0.38268214, y: 0, z: 0, w: 0.92388004}
        inSlope: {x: 0.27104217, y: 0, z: 0, w: -0.11226888}
        outSlope: {x: 0.27104217, y: 0, z: 0, w: -0.11226888}
        tangentMode: 0
      - serializedVersion: 2
        time: 10.199995
        value: {x: 0.43623123, y: 0, z: 0, w: 0.89983463}
        inSlope: {x: 0.26141697, y: 0, z: 0, w: -0.12654227}
        outSlope: {x: 0.26141697, y: 0, z: 0, w: -0.12654227}
        tangentMode: 0
      - serializedVersion: 2
        time: 10.399995
        value: {x: 0.48724884, y: 0, z: 0, w: 0.8732632}
        inSlope: {x: 0.24608359, y: 0, z: 0, w: -0.13692571}
        outSlope: {x: 0.24608359, y: 0, z: 0, w: -0.13692571}
        tangentMode: 0
      - serializedVersion: 2
        time: 10.599995
        value: {x: 0.5346646, y: 0, z: 0, w: 0.8450644}
        inSlope: {x: 0.22580704, y: 0, z: 0, w: -0.14230801}
        outSlope: {x: 0.22580704, y: 0, z: 0, w: -0.14230801}
        tangentMode: 0
      - serializedVersion: 2
        time: 10.799994
        value: {x: 0.5775716, y: 0, z: 0, w: 0.81634}
        inSlope: {x: 0.20141517, y: 0, z: 0, w: -0.14179303}
        outSlope: {x: 0.20141517, y: 0, z: 0, w: -0.14179303}
        tangentMode: 0
      - serializedVersion: 2
        time: 10.999994
        value: {x: 0.61523056, y: 0, z: 0, w: 0.78834724}
        inSlope: {x: 0.17370881, y: 0, z: 0, w: -0.13474193}
        outSlope: {x: 0.17370881, y: 0, z: 0, w: -0.13474193}
        tangentMode: 0
      - serializedVersion: 2
        time: 11.199994
        value: {x: 0.64705503, y: 0, z: 0, w: 0.7624433}
        inSlope: {x: 0.14336391, y: 0, z: 0, w: -0.12079816}
        outSlope: {x: 0.14336391, y: 0, z: 0, w: -0.12079816}
        tangentMode: 0
      - serializedVersion: 2
        time: 11.399994
        value: {x: 0.67257607, y: 0, z: 0, w: 0.740028}
        inSlope: {x: 0.11082883, y: 0, z: 0, w: -0.099895686}
        outSlope: {x: 0.11082883, y: 0, z: 0, w: -0.099895686}
        tangentMode: 0
      - serializedVersion: 2
        time: 11.599994
        value: {x: 0.6913865, y: 0, z: 0, w: 0.72248507}
        inSlope: {x: 0.07623173, y: 0, z: 0, w: -0.072265334}
        outSlope: {x: 0.07623173, y: 0, z: 0, w: -0.072265334}
        tangentMode: 0
      - serializedVersion: 2
        time: 11.7999935
        value: {x: 0.70306873, y: 0, z: 0, w: 0.7111219}
        inSlope: {x: 0.039300323, y: 0, z: 0, w: -0.038445443}
        outSlope: {x: 0.039300323, y: 0, z: 0, w: -0.038445443}
        tangentMode: 0
      - serializedVersion: 2
        time: 12
        value: {x: 0.70710677, y: 0, z: 0, w: 0.70710677}
        inSlope: {x: 0.020189526, y: 0, z: 0, w: -0.020075088}
        outSlope: {x: 0.020189526, y: 0, z: 0, w: -0.020075088}
        tangentMode: 0
      m_PreInfinity: 2
      m_PostInfinity: 2
      m_RotationOrder: 4
    path: 
  m_CompressedRotationCurves: []
  m_EulerCurves: []
  m_PositionCurves:
  - curve:
      serializedVersion: 2
      m_Curve:
      - serializedVersion: 2
        time: 0
        value: {x: -35.6, y: 19.4, z: -44.6}
        inSlope: {x: 0, y: 0, z: 0}
        outSlope: {x: 0, y: 0, z: 0}
        tangentMode: 0
      - serializedVersion: 2
        time: 4
        value: {x: -37.9, y: 19.32, z: -38}
        inSlope: {x: 0, y: -0.03999996, z: 1.8624997}
        outSlope: {x: 0, y: -0.03999996, z: 1.8624997}
        tangentMode: 0
      - serializedVersion: 2
        time: 8
        value: {x: -35.7, y: 17.86, z: -29.7}
        inSlope: {x: 0, y: 0, z: 2.1875}
        outSlope: {x: 0, y: 0, z: 2.1875}
        tangentMode: 0
      - serializedVersion: 2
        time: 12
        value: {x: -35.9, y: 35.5, z: -20.5}
        inSlope: {x: 0, y: 0, z: 0}
        outSlope: {x: 0, y: 0, z: 0}
        tangentMode: 0
      m_PreInfinity: 2
      m_PostInfinity: 2
      m_RotationOrder: 4
    path: 
  m_ScaleCurves: []
  m_FloatCurves: []
  m_PPtrCurves: []
  m_SampleRate: 5
  m_WrapMode: 0
  m_Bounds:
    m_Center: {x: 0, y: 0, z: 0}
    m_Extent: {x: 0, y: 0, z: 0}
  m_ClipBindingConstant:
    genericBindings: []
    pptrCurveMapping: []
  m_AnimationClipSettings:
    serializedVersion: 2
    m_AdditiveReferencePoseClip: {fileID: 0}
    m_AdditiveReferencePoseTime: 0
    m_StartTime: 0
    m_StopTime: 12
    m_OrientationOffsetY: 0
    m_Level: 0
    m_CycleOffset: 0
    m_HasAdditiveReferencePose: 0
    m_LoopTime: 1
    m_LoopBlend: 0
    m_LoopBlendOrientation: 0
    m_LoopBlendPositionY: 0
    m_LoopBlendPositionXZ: 0
    m_KeepOriginalOrientation: 0
    m_KeepOriginalPositionY: 1
    m_KeepOriginalPositionXZ: 0
    m_HeightFromFeet: 0
    m_Mirror: 0
  m_EditorCurves:
  - curve:
      serializedVersion: 2
      m_Curve:
      - serializedVersion: 2
        time: 0
        value: -35.6
        inSlope: 0
        outSlope: 0
        tangentMode: 136
      - serializedVersion: 2
        time: 4
        value: -37.9
        inSlope: 0
        outSlope: 0
        tangentMode: 136
      - serializedVersion: 2
        time: 8
        value: -35.7
        inSlope: 0
        outSlope: 0
        tangentMode: 136
      - serializedVersion: 2
        time: 12
        value: -35.9
        inSlope: 0
        outSlope: 0
        tangentMode: 136
      m_PreInfinity: 2
      m_PostInfinity: 2
      m_RotationOrder: 4
    attribute: m_LocalPosition.x
    path: 
    classID: 4
    script: {fileID: 0}
  - curve:
      serializedVersion: 2
      m_Curve:
      - serializedVersion: 2
        time: 0
        value: 19.4
        inSlope: 0
        outSlope: 0
        tangentMode: 136
      - serializedVersion: 2
        time: 4
        value: 19.32
        inSlope: -0.03999996
        outSlope: -0.03999996
        tangentMode: 136
      - serializedVersion: 2
        time: 8
        value: 17.86
        inSlope: 0
        outSlope: 0
        tangentMode: 136
      - serializedVersion: 2
        time: 12
        value: 35.5
        inSlope: 0
        outSlope: 0
        tangentMode: 136
      m_PreInfinity: 2
      m_PostInfinity: 2
      m_RotationOrder: 4
    attribute: m_LocalPosition.y
    path: 
    classID: 4
    script: {fileID: 0}
  - curve:
      serializedVersion: 2
      m_Curve:
      - serializedVersion: 2
        time: 0
        value: -44.6
        inSlope: 0
        outSlope: 0
        tangentMode: 136
      - serializedVersion: 2
        time: 4
        value: -38
        inSlope: 1.8624997
        outSlope: 1.8624997
        tangentMode: 136
      - serializedVersion: 2
        time: 8
        value: -29.7
        inSlope: 2.1875
        outSlope: 2.1875
        tangentMode: 136
      - serializedVersion: 2
        time: 12
        value: -20.5
        inSlope: 0
        outSlope: 0
        tangentMode: 136
      m_PreInfinity: 2
      m_PostInfinity: 2
      m_RotationOrder: 4
    attribute: m_LocalPosition.z
    path: 
    classID: 4
    script: {fileID: 0}
  - curve:
      serializedVersion: 2
      m_Curve:
      - serializedVersion: 2
        time: 0
        value: 0
        inSlope: 0
        outSlope: 0
        tangentMode: 0
      - serializedVersion: 2
        time: 0.2
        value: 0
        inSlope: 0
        outSlope: 0
        tangentMode: 0
      - serializedVersion: 2
        time: 0.4
        value: 0
        inSlope: 0
        outSlope: 0
        tangentMode: 0
      - serializedVersion: 2
        time: 0.6
        value: 0
        inSlope: 0
        outSlope: 0
        tangentMode: 0
      - serializedVersion: 2
        time: 0.8
        value: 0
        inSlope: 0
        outSlope: 0
        tangentMode: 0
      - serializedVersion: 2
        time: 1
        value: 0
        inSlope: 0
        outSlope: 0
        tangentMode: 0
      - serializedVersion: 2
        time: 1.2
        value: 0
        inSlope: 0
        outSlope: 0
        tangentMode: 0
      - serializedVersion: 2
        time: 1.4000001
        value: 0
        inSlope: 0
        outSlope: 0
        tangentMode: 0
      - serializedVersion: 2
        time: 1.6000001
        value: 0
        inSlope: 0
        outSlope: 0
        tangentMode: 0
      - serializedVersion: 2
        time: 1.8000002
        value: 0
        inSlope: 0
        outSlope: 0
        tangentMode: 0
      - serializedVersion: 2
        time: 2.0000002
        value: 0
        inSlope: 0
        outSlope: 0
        tangentMode: 0
      - serializedVersion: 2
        time: 2.2000003
        value: 0
        inSlope: 0
        outSlope: 0
        tangentMode: 0
      - serializedVersion: 2
        time: 2.4000003
        value: 0
        inSlope: 0
        outSlope: 0
        tangentMode: 0
      - serializedVersion: 2
        time: 2.6000004
        value: 0
        inSlope: 0
        outSlope: 0
        tangentMode: 0
      - serializedVersion: 2
        time: 2.8000004
        value: 0
        inSlope: 0
        outSlope: 0
        tangentMode: 0
      - serializedVersion: 2
        time: 3.0000005
        value: 0
        inSlope: 0
        outSlope: 0
        tangentMode: 0
      - serializedVersion: 2
        time: 3.2000005
        value: 0
        inSlope: 0
        outSlope: 0
        tangentMode: 0
      - serializedVersion: 2
        time: 3.4000006
        value: 0
        inSlope: 0
        outSlope: 0
        tangentMode: 0
      - serializedVersion: 2
        time: 3.6000006
        value: 0
        inSlope: 0
        outSlope: 0
        tangentMode: 0
      - serializedVersion: 2
        time: 3.8000007
        value: 0
        inSlope: 0
        outSlope: 0
        tangentMode: 0
      - serializedVersion: 2
        time: 4.0000005
        value: 0
        inSlope: 0
        outSlope: 0
        tangentMode: 0
      - serializedVersion: 2
        time: 4.2000003
        value: 0
        inSlope: 0
        outSlope: 0
        tangentMode: 0
      - serializedVersion: 2
        time: 4.4
        value: 0
        inSlope: 0
        outSlope: 0
        tangentMode: 0
      - serializedVersion: 2
        time: 4.6
        value: 0
        inSlope: 0
        outSlope: 0
        tangentMode: 0
      - serializedVersion: 2
        time: 4.7999997
        value: 0
        inSlope: 0
        outSlope: 0
        tangentMode: 0
      - serializedVersion: 2
        time: 4.9999995
        value: 0
        inSlope: 0
        outSlope: 0
        tangentMode: 0
      - serializedVersion: 2
        time: 5.1999993
        value: 0
        inSlope: 0
        outSlope: 0
        tangentMode: 0
      - serializedVersion: 2
        time: 5.399999
        value: 0
        inSlope: 0
        outSlope: 0
        tangentMode: 0
      - serializedVersion: 2
        time: 5.599999
        value: 0
        inSlope: 0
        outSlope: 0
        tangentMode: 0
      - serializedVersion: 2
        time: 5.7999988
        value: 0
        inSlope: 0
        outSlope: 0
        tangentMode: 0
      - serializedVersion: 2
        time: 5.9999986
        value: 0
        inSlope: 0
        outSlope: 0
        tangentMode: 0
      - serializedVersion: 2
        time: 6.1999984
        value: 0
        inSlope: 0
        outSlope: 0
        tangentMode: 0
      - serializedVersion: 2
        time: 6.399998
        value: 0
        inSlope: 0
        outSlope: 0
        tangentMode: 0
      - serializedVersion: 2
        time: 6.599998
        value: 0
        inSlope: 0
        outSlope: 0
        tangentMode: 0
      - serializedVersion: 2
        time: 6.799998
        value: 0
        inSlope: 0
        outSlope: 0
        tangentMode: 0
      - serializedVersion: 2
        time: 6.9999976
        value: 0
        inSlope: 0
        outSlope: 0
        tangentMode: 0
      - serializedVersion: 2
        time: 7.1999974
        value: 0
        inSlope: 0
        outSlope: 0
        tangentMode: 0
      - serializedVersion: 2
        time: 7.399997
        value: 0
        inSlope: 0
        outSlope: 0
        tangentMode: 0
      - serializedVersion: 2
        time: 7.599997
        value: 0
        inSlope: 0
        outSlope: 0
        tangentMode: 0
      - serializedVersion: 2
        time: 7.799997
        value: 0
        inSlope: 0
        outSlope: 0
        tangentMode: 0
      - serializedVersion: 2
        time: 7.9999967
        value: 0
        inSlope: 0.014234816
        outSlope: 0.014234816
        tangentMode: 0
      - serializedVersion: 2
        time: 8.199997
        value: 0.0056939344
        inSlope: 0.054972596
        outSlope: 0.054972596
        tangentMode: 0
      - serializedVersion: 2
        time: 8.399997
        value: 0.021989033
        inSlope: 0.10500106
        outSlope: 0.10500106
        tangentMode: 0
      - serializedVersion: 2
        time: 8.599997
        value: 0.047694318
        inSlope: 0.14900239
        outSlope: 0.14900239
        tangentMode: 0
      - serializedVersion: 2
        time: 8.799996
        value: 0.08158993
        inSlope: 0.18678898
        outSlope: 0.18678898
        tangentMode: 0
      - serializedVersion: 2
        time: 8.999996
        value: 0.122409835
        inSlope: 0.21810655
        outSlope: 0.21810655
        tangentMode: 0
      - serializedVersion: 2
        time: 9.199996
        value: 0.16883247
        inSlope: 0.24268386
        outSlope: 0.24268386
        tangentMode: 0
      - serializedVersion: 2
        time: 9.399996
        value: 0.21948329
        inSlope: 0.26029593
        outSlope: 0.26029593
        tangentMode: 0
      - serializedVersion: 2
        time: 9.599996
        value: 0.27295074
        inSlope: 0.2708282
        outSlope: 0.2708282
        tangentMode: 0
      - serializedVersion: 2
        time: 9.799995
        value: 0.32781446
        inSlope: 0.27432877
        outSlope: 0.27432877
        tangentMode: 0
      - serializedVersion: 2
        time: 9.999995
        value: 0.38268214
        inSlope: 0.27104217
        outSlope: 0.27104217
        tangentMode: 0
      - serializedVersion: 2
        time: 10.199995
        value: 0.43623123
        inSlope: 0.26141697
        outSlope: 0.26141697
        tangentMode: 0
      - serializedVersion: 2
        time: 10.399995
        value: 0.48724884
        inSlope: 0.24608359
        outSlope: 0.24608359
        tangentMode: 0
      - serializedVersion: 2
        time: 10.599995
        value: 0.5346646
        inSlope: 0.22580704
        outSlope: 0.22580704
        tangentMode: 0
      - serializedVersion: 2
        time: 10.799994
        value: 0.5775716
        inSlope: 0.20141517
        outSlope: 0.20141517
        tangentMode: 0
      - serializedVersion: 2
        time: 10.999994
        value: 0.61523056
        inSlope: 0.17370881
        outSlope: 0.17370881
        tangentMode: 0
      - serializedVersion: 2
        time: 11.199994
        value: 0.64705503
        inSlope: 0.14336391
        outSlope: 0.14336391
        tangentMode: 0
      - serializedVersion: 2
        time: 11.399994
        value: 0.67257607
        inSlope: 0.11082883
        outSlope: 0.11082883
        tangentMode: 0
      - serializedVersion: 2
        time: 11.599994
        value: 0.6913865
        inSlope: 0.07623173
        outSlope: 0.07623173
        tangentMode: 0
      - serializedVersion: 2
        time: 11.7999935
        value: 0.70306873
        inSlope: 0.039300323
        outSlope: 0.039300323
        tangentMode: 0
      - serializedVersion: 2
        time: 12
        value: 0.70710677
        inSlope: 0.020189526
        outSlope: 0.020189526
        tangentMode: 0
      m_PreInfinity: 2
      m_PostInfinity: 2
      m_RotationOrder: 4
    attribute: m_LocalRotation.x
    path: 
    classID: 4
    script: {fileID: 0}
  - curve:
      serializedVersion: 2
      m_Curve:
      - serializedVersion: 2
        time: 0
        value: 0
        inSlope: 0.0028470682
        outSlope: 0.0028470682
        tangentMode: 0
      - serializedVersion: 2
        time: 0.2
        value: 0.00056941365
        inSlope: 0.0054977834
        outSlope: 0.0054977834
        tangentMode: 0
      - serializedVersion: 2
        time: 0.4
        value: 0.0021991134
        inSlope: 0.010504656
        outSlope: 0.010504656
        tangentMode: 0
      - serializedVersion: 2
        time: 0.6
        value: 0.004771276
        inSlope: 0.0149223395
        outSlope: 0.0149223395
        tangentMode: 0
      - serializedVersion: 2
        time: 0.8
        value: 0.008168049
        inSlope: 0.018750656
        outSlope: 0.018750656
        tangentMode: 0
      - serializedVersion: 2
        time: 1
        value: 0.012271538
        inSlope: 0.02198935
        outSlope: 0.02198935
        tangentMode: 0
      - serializedVersion: 2
        time: 1.2
        value: 0.01696379
        inSlope: 0.024638124
        outSlope: 0.024638124
        tangentMode: 0
      - serializedVersion: 2
        time: 1.4000001
        value: 0.02212679
        inSlope: 0.026696764
        outSlope: 0.026696764
        tangentMode: 0
      - serializedVersion: 2
        time: 1.6000001
        value: 0.027642498
        inSlope: 0.028165152
        outSlope: 0.028165152
        tangentMode: 0
      - serializedVersion: 2
        time: 1.8000002
        value: 0.033392854
        inSlope: 0.02904331
        outSlope: 0.02904331
        tangentMode: 0
      - serializedVersion: 2
        time: 2.0000002
        value: 0.039259825
        inSlope: 0.029331448
        outSlope: 0.029331448
        tangentMode: 0
      - serializedVersion: 2
        time: 2.2000003
        value: 0.045125436
        inSlope: 0.029030034
        outSlope: 0.029030034
        tangentMode: 0
      - serializedVersion: 2
        time: 2.4000003
        value: 0.05087184
        inSlope: 0.028139709
        outSlope: 0.028139709
        tangentMode: 0
      - serializedVersion: 2
        time: 2.6000004
        value: 0.056381322
        inSlope: 0.026661199
        outSlope: 0.026661199
        tangentMode: 0
      - serializedVersion: 2
        time: 2.8000004
        value: 0.061536323
        inSlope: 0.024595423
        outSlope: 0.024595423
        tangentMode: 0
      - serializedVersion: 2
        time: 3.0000005
        value: 0.066219494
        inSlope: 0.02194323
        outSlope: 0.02194323
        tangentMode: 0
      - serializedVersion: 2
        time: 3.2000005
        value: 0.07031362
        inSlope: 0.01870535
        outSlope: 0.01870535
        tangentMode: 0
      - serializedVersion: 2
        time: 3.4000006
        value: 0.073701635
        inSlope: 0.014882419
        outSlope: 0.014882419
        tangentMode: 0
      - serializedVersion: 2
        time: 3.6000006
        value: 0.07626659
        inSlope: 0.010474509
        outSlope: 0.010474509
        tangentMode: 0
      - serializedVersion: 2
        time: 3.8000007
        value: 0.07789144
        inSlope: 0.005481281
        outSlope: 0.005481281
        tangentMode: 0
      - serializedVersion: 2
        time: 4.0000005
        value: 0.0784591
        inSlope: -0.000000037252903
        outSlope: -0.000000037252903
        tangentMode: 0
      - serializedVersion: 2
        time: 4.2000003
        value: 0.077891424
        inSlope: -0.005481304
        outSlope: -0.005481304
        tangentMode: 0
      - serializedVersion: 2
        time: 4.4
        value: 0.07626658
        inSlope: -0.010474483
        outSlope: -0.010474483
        tangentMode: 0
      - serializedVersion: 2
        time: 4.6
        value: 0.073701635
        inSlope: -0.014882419
        outSlope: -0.014882419
        tangentMode: 0
      - serializedVersion: 2
        time: 4.7999997
        value: 0.07031362
        inSlope: -0.018705372
        outSlope: -0.018705372
        tangentMode: 0
      - serializedVersion: 2
        time: 4.9999995
        value: 0.066219494
        inSlope: -0.021943247
        outSlope: -0.021943247
        tangentMode: 0
      - serializedVersion: 2
        time: 5.1999993
        value: 0.061536327
        inSlope: -0.024595432
        outSlope: -0.024595432
        tangentMode: 0
      - serializedVersion: 2
        time: 5.399999
        value: 0.05638133
        inSlope: -0.026661184
        outSlope: -0.026661184
        tangentMode: 0
      - serializedVersion: 2
        time: 5.599999
        value: 0.050871864
        inSlope: -0.028139688
        outSlope: -0.028139688
        tangentMode: 0
      - serializedVersion: 2
        time: 5.7999988
        value: 0.045125466
        inSlope: -0.029030042
        outSlope: -0.029030042
        tangentMode: 0
      - serializedVersion: 2
        time: 5.9999986
        value: 0.03925986
        inSlope: -0.029331455
        outSlope: -0.029331455
        tangentMode: 0
      - serializedVersion: 2
        time: 6.1999984
        value: 0.033392895
        inSlope: -0.029043313
        outSlope: -0.029043313
        tangentMode: 0
      - serializedVersion: 2
        time: 6.399998
        value: 0.027642544
        inSlope: -0.028165154
        outSlope: -0.028165154
        tangentMode: 0
      - serializedVersion: 2
        time: 6.599998
        value: 0.022126844
        inSlope: -0.026696779
        outSlope: -0.026696779
        tangentMode: 0
      - serializedVersion: 2
        time: 6.799998
        value: 0.016963843
        inSlope: -0.024638154
        outSlope: -0.024638154
        tangentMode: 0
      - serializedVersion: 2
        time: 6.9999976
        value: 0.012271592
        inSlope: -0.021989383
        outSlope: -0.021989383
        tangentMode: 0
      - serializedVersion: 2
        time: 7.1999974
        value: 0.0081680985
        inSlope: -0.018750705
        outSlope: -0.018750705
        tangentMode: 0
      - serializedVersion: 2
        time: 7.399997
        value: 0.004771318
        inSlope: -0.014922377
        outSlope: -0.014922377
        tangentMode: 0
      - serializedVersion: 2
        time: 7.599997
        value: 0.0021991534
        inSlope: -0.010504741
        outSlope: -0.010504741
        tangentMode: 0
      - serializedVersion: 2
        time: 7.799997
        value: 0.0005694254
        inSlope: -0.0054978887
        outSlope: -0.0054978887
        tangentMode: 0
      - serializedVersion: 2
        time: 7.9999967
        value: 0
        inSlope: -0.0014235649
        outSlope: -0.0014235649
        tangentMode: 0
      - serializedVersion: 2
        time: 8.199997
        value: 0
        inSlope: 0
        outSlope: 0
        tangentMode: 0
      - serializedVersion: 2
        time: 8.399997
        value: 0
        inSlope: 0
        outSlope: 0
        tangentMode: 0
      - serializedVersion: 2
        time: 8.599997
        value: 0
        inSlope: 0
        outSlope: 0
        tangentMode: 0
      - serializedVersion: 2
        time: 8.799996
        value: 0
        inSlope: 0
        outSlope: 0
        tangentMode: 0
      - serializedVersion: 2
        time: 8.999996
        value: 0
        inSlope: 0
        outSlope: 0
        tangentMode: 0
      - serializedVersion: 2
        time: 9.199996
        value: 0
        inSlope: 0
        outSlope: 0
        tangentMode: 0
      - serializedVersion: 2
        time: 9.399996
        value: 0
        inSlope: 0
        outSlope: 0
        tangentMode: 0
      - serializedVersion: 2
        time: 9.599996
        value: 0
        inSlope: 0
        outSlope: 0
        tangentMode: 0
      - serializedVersion: 2
        time: 9.799995
        value: 0
        inSlope: 0
        outSlope: 0
        tangentMode: 0
      - serializedVersion: 2
        time: 9.999995
        value: 0
        inSlope: 0
        outSlope: 0
        tangentMode: 0
      - serializedVersion: 2
        time: 10.199995
        value: 0
        inSlope: 0
        outSlope: 0
        tangentMode: 0
      - serializedVersion: 2
        time: 10.399995
        value: 0
        inSlope: 0
        outSlope: 0
        tangentMode: 0
      - serializedVersion: 2
        time: 10.599995
        value: 0
        inSlope: 0
        outSlope: 0
        tangentMode: 0
      - serializedVersion: 2
        time: 10.799994
        value: 0
        inSlope: 0
        outSlope: 0
        tangentMode: 0
      - serializedVersion: 2
        time: 10.999994
        value: 0
        inSlope: 0
        outSlope: 0
        tangentMode: 0
      - serializedVersion: 2
        time: 11.199994
        value: 0
        inSlope: 0
        outSlope: 0
        tangentMode: 0
      - serializedVersion: 2
        time: 11.399994
        value: 0
        inSlope: 0
        outSlope: 0
        tangentMode: 0
      - serializedVersion: 2
        time: 11.599994
        value: 0
        inSlope: 0
        outSlope: 0
        tangentMode: 0
      - serializedVersion: 2
        time: 11.7999935
        value: 0
        inSlope: 0
        outSlope: 0
        tangentMode: 0
      - serializedVersion: 2
        time: 12
        value: 0
        inSlope: 0
        outSlope: 0
        tangentMode: 0
      m_PreInfinity: 2
      m_PostInfinity: 2
      m_RotationOrder: 4
    attribute: m_LocalRotation.y
    path: 
    classID: 4
    script: {fileID: 0}
  - curve:
      serializedVersion: 2
      m_Curve:
      - serializedVersion: 2
        time: 0
        value: 0
        inSlope: 0
        outSlope: 0
        tangentMode: 0
      - serializedVersion: 2
        time: 0.2
        value: 0
        inSlope: 0
        outSlope: 0
        tangentMode: 0
      - serializedVersion: 2
        time: 0.4
        value: 0
        inSlope: 0
        outSlope: 0
        tangentMode: 0
      - serializedVersion: 2
        time: 0.6
        value: 0
        inSlope: 0
        outSlope: 0
        tangentMode: 0
      - serializedVersion: 2
        time: 0.8
        value: 0
        inSlope: 0
        outSlope: 0
        tangentMode: 0
      - serializedVersion: 2
        time: 1
        value: 0
        inSlope: 0
        outSlope: 0
        tangentMode: 0
      - serializedVersion: 2
        time: 1.2
        value: 0
        inSlope: 0
        outSlope: 0
        tangentMode: 0
      - serializedVersion: 2
        time: 1.4000001
        value: 0
        inSlope: 0
        outSlope: 0
        tangentMode: 0
      - serializedVersion: 2
        time: 1.6000001
        value: 0
        inSlope: 0
        outSlope: 0
        tangentMode: 0
      - serializedVersion: 2
        time: 1.8000002
        value: 0
        inSlope: 0
        outSlope: 0
        tangentMode: 0
      - serializedVersion: 2
        time: 2.0000002
        value: 0
        inSlope: 0
        outSlope: 0
        tangentMode: 0
      - serializedVersion: 2
        time: 2.2000003
        value: 0
        inSlope: 0
        outSlope: 0
        tangentMode: 0
      - serializedVersion: 2
        time: 2.4000003
        value: 0
        inSlope: 0
        outSlope: 0
        tangentMode: 0
      - serializedVersion: 2
        time: 2.6000004
        value: 0
        inSlope: 0
        outSlope: 0
        tangentMode: 0
      - serializedVersion: 2
        time: 2.8000004
        value: 0
        inSlope: 0
        outSlope: 0
        tangentMode: 0
      - serializedVersion: 2
        time: 3.0000005
        value: 0
        inSlope: 0
        outSlope: 0
        tangentMode: 0
      - serializedVersion: 2
        time: 3.2000005
        value: 0
        inSlope: 0
        outSlope: 0
        tangentMode: 0
      - serializedVersion: 2
        time: 3.4000006
        value: 0
        inSlope: 0
        outSlope: 0
        tangentMode: 0
      - serializedVersion: 2
        time: 3.6000006
        value: 0
        inSlope: 0
        outSlope: 0
        tangentMode: 0
      - serializedVersion: 2
        time: 3.8000007
        value: 0
        inSlope: 0
        outSlope: 0
        tangentMode: 0
      - serializedVersion: 2
        time: 4.0000005
        value: 0
        inSlope: 0
        outSlope: 0
        tangentMode: 0
      - serializedVersion: 2
        time: 4.2000003
        value: 0
        inSlope: 0
        outSlope: 0
        tangentMode: 0
      - serializedVersion: 2
        time: 4.4
        value: 0
        inSlope: 0
        outSlope: 0
        tangentMode: 0
      - serializedVersion: 2
        time: 4.6
        value: 0
        inSlope: 0
        outSlope: 0
        tangentMode: 0
      - serializedVersion: 2
        time: 4.7999997
        value: 0
        inSlope: 0
        outSlope: 0
        tangentMode: 0
      - serializedVersion: 2
        time: 4.9999995
        value: 0
        inSlope: 0
        outSlope: 0
        tangentMode: 0
      - serializedVersion: 2
        time: 5.1999993
        value: 0
        inSlope: 0
        outSlope: 0
        tangentMode: 0
      - serializedVersion: 2
        time: 5.399999
        value: 0
        inSlope: 0
        outSlope: 0
        tangentMode: 0
      - serializedVersion: 2
        time: 5.599999
        value: 0
        inSlope: 0
        outSlope: 0
        tangentMode: 0
      - serializedVersion: 2
        time: 5.7999988
        value: 0
        inSlope: 0
        outSlope: 0
        tangentMode: 0
      - serializedVersion: 2
        time: 5.9999986
        value: 0
        inSlope: 0
        outSlope: 0
        tangentMode: 0
      - serializedVersion: 2
        time: 6.1999984
        value: 0
        inSlope: 0
        outSlope: 0
        tangentMode: 0
      - serializedVersion: 2
        time: 6.399998
        value: 0
        inSlope: 0
        outSlope: 0
        tangentMode: 0
      - serializedVersion: 2
        time: 6.599998
        value: 0
        inSlope: 0
        outSlope: 0
        tangentMode: 0
      - serializedVersion: 2
        time: 6.799998
        value: 0
        inSlope: 0
        outSlope: 0
        tangentMode: 0
      - serializedVersion: 2
        time: 6.9999976
        value: 0
        inSlope: 0
        outSlope: 0
        tangentMode: 0
      - serializedVersion: 2
        time: 7.1999974
        value: 0
        inSlope: 0
        outSlope: 0
        tangentMode: 0
      - serializedVersion: 2
        time: 7.399997
        value: 0
        inSlope: 0
        outSlope: 0
        tangentMode: 0
      - serializedVersion: 2
        time: 7.599997
        value: 0
        inSlope: 0
        outSlope: 0
        tangentMode: 0
      - serializedVersion: 2
        time: 7.799997
        value: 0
        inSlope: 0
        outSlope: 0
        tangentMode: 0
      - serializedVersion: 2
        time: 7.9999967
        value: 0
        inSlope: 0
        outSlope: 0
        tangentMode: 0
      - serializedVersion: 2
        time: 8.199997
        value: 0
        inSlope: 0
        outSlope: 0
        tangentMode: 0
      - serializedVersion: 2
        time: 8.399997
        value: 0
        inSlope: 0
        outSlope: 0
        tangentMode: 0
      - serializedVersion: 2
        time: 8.599997
        value: 0
        inSlope: 0
        outSlope: 0
        tangentMode: 0
      - serializedVersion: 2
        time: 8.799996
        value: 0
        inSlope: 0
        outSlope: 0
        tangentMode: 0
      - serializedVersion: 2
        time: 8.999996
        value: 0
        inSlope: 0
        outSlope: 0
        tangentMode: 0
      - serializedVersion: 2
        time: 9.199996
        value: 0
        inSlope: 0
        outSlope: 0
        tangentMode: 0
      - serializedVersion: 2
        time: 9.399996
        value: 0
        inSlope: 0
        outSlope: 0
        tangentMode: 0
      - serializedVersion: 2
        time: 9.599996
        value: 0
        inSlope: 0
        outSlope: 0
        tangentMode: 0
      - serializedVersion: 2
        time: 9.799995
        value: 0
        inSlope: 0
        outSlope: 0
        tangentMode: 0
      - serializedVersion: 2
        time: 9.999995
        value: 0
        inSlope: 0
        outSlope: 0
        tangentMode: 0
      - serializedVersion: 2
        time: 10.199995
        value: 0
        inSlope: 0
        outSlope: 0
        tangentMode: 0
      - serializedVersion: 2
        time: 10.399995
        value: 0
        inSlope: 0
        outSlope: 0
        tangentMode: 0
      - serializedVersion: 2
        time: 10.599995
        value: 0
        inSlope: 0
        outSlope: 0
        tangentMode: 0
      - serializedVersion: 2
        time: 10.799994
        value: 0
        inSlope: 0
        outSlope: 0
        tangentMode: 0
      - serializedVersion: 2
        time: 10.999994
        value: 0
        inSlope: 0
        outSlope: 0
        tangentMode: 0
      - serializedVersion: 2
        time: 11.199994
        value: 0
        inSlope: 0
        outSlope: 0
        tangentMode: 0
      - serializedVersion: 2
        time: 11.399994
        value: 0
        inSlope: 0
        outSlope: 0
        tangentMode: 0
      - serializedVersion: 2
        time: 11.599994
        value: 0
        inSlope: 0
        outSlope: 0
        tangentMode: 0
      - serializedVersion: 2
        time: 11.7999935
        value: 0
        inSlope: 0
        outSlope: 0
        tangentMode: 0
      - serializedVersion: 2
        time: 12
        value: 0
        inSlope: 0
        outSlope: 0
        tangentMode: 0
      m_PreInfinity: 2
      m_PostInfinity: 2
      m_RotationOrder: 4
    attribute: m_LocalRotation.z
    path: 
    classID: 4
    script: {fileID: 0}
  - curve:
      serializedVersion: 2
      m_Curve:
      - serializedVersion: 2
        time: 0
        value: 1
        inSlope: -0.0000008940697
        outSlope: -0.0000008940697
        tangentMode: 0
      - serializedVersion: 2
        time: 0.2
        value: 0.9999998
        inSlope: -0.000006109476
        outSlope: -0.000006109476
        tangentMode: 0
      - serializedVersion: 2
        time: 0.4
        value: 0.99999756
        inSlope: -0.000028014181
        outSlope: -0.000028014181
        tangentMode: 0
      - serializedVersion: 2
        time: 0.6
        value: 0.9999886
        inSlope: -0.00007733703
        outSlope: -0.00007733703
        tangentMode: 0
      - serializedVersion: 2
        time: 0.8
        value: 0.9999666
        inSlope: -0.00015974046
        outSlope: -0.00015974046
        tangentMode: 0
      - serializedVersion: 2
        time: 1
        value: 0.9999247
        inSlope: -0.0002762675
        outSlope: -0.0002762675
        tangentMode: 0
      - serializedVersion: 2
        time: 1.2
        value: 0.9998561
        inSlope: -0.00042393792
        outSlope: -0.00042393792
        tangentMode: 0
      - serializedVersion: 2
        time: 1.4000001
        value: 0.99975514
        inSlope: -0.0005955993
        outSlope: -0.0005955993
        tangentMode: 0
      - serializedVersion: 2
        time: 1.6000001
        value: 0.9996179
        inSlope: -0.0007821617
        outSlope: -0.0007821617
        tangentMode: 0
      - serializedVersion: 2
        time: 1.8000002
        value: 0.9994423
        inSlope: -0.0009721515
        outSlope: -0.0009721515
        tangentMode: 0
      - serializedVersion: 2
        time: 2.0000002
        value: 0.999229
        inSlope: -0.0011523066
        outSlope: -0.0011523066
        tangentMode: 0
      - serializedVersion: 2
        time: 2.2000003
        value: 0.99898136
        inSlope: -0.0013095137
        outSlope: -0.0013095137
        tangentMode: 0
      - serializedVersion: 2
        time: 2.4000003
        value: 0.9987052
        inSlope: -0.0014300641
        outSlope: -0.0014300641
        tangentMode: 0
      - serializedVersion: 2
        time: 2.6000004
        value: 0.99840933
        inSlope: -0.0015008446
        outSlope: -0.0015008446
        tangentMode: 0
      - serializedVersion: 2
        time: 2.8000004
        value: 0.9981049
        inSlope: -0.0015106794
        outSlope: -0.0015106794
        tangentMode: 0
      - serializedVersion: 2
        time: 3.0000005
        value: 0.99780506
        inSlope: -0.0014498826
        outSlope: -0.0014498826
        tangentMode: 0
      - serializedVersion: 2
        time: 3.2000005
        value: 0.9975249
        inSlope: -0.0013117489
        outSlope: -0.0013117489
        tangentMode: 0
      - serializedVersion: 2
        time: 3.4000006
        value: 0.99728036
        inSlope: -0.001093596
        outSlope: -0.001093596
        tangentMode: 0
      - serializedVersion: 2
        time: 3.6000006
        value: 0.9970875
        inSlope: -0.0007963178
        outSlope: -0.0007963178
        tangentMode: 0
      - serializedVersion: 2
        time: 3.8000007
        value: 0.99696183
        inSlope: -0.00042542818
        outSlope: -0.00042542818
        tangentMode: 0
      - serializedVersion: 2
        time: 4.0000005
        value: 0.9969173
        inSlope: 0
        outSlope: 0
        tangentMode: 0
      - serializedVersion: 2
        time: 4.2000003
        value: 0.99696183
        inSlope: 0.00042542856
        outSlope: 0.00042542856
        tangentMode: 0
      - serializedVersion: 2
        time: 4.4
        value: 0.9970875
        inSlope: 0.0007963188
        outSlope: 0.0007963188
        tangentMode: 0
      - serializedVersion: 2
        time: 4.6
        value: 0.99728036
        inSlope: 0.0010935973
        outSlope: 0.0010935973
        tangentMode: 0
      - serializedVersion: 2
        time: 4.7999997
        value: 0.9975249
        inSlope: 0.0013117504
        outSlope: 0.0013117504
        tangentMode: 0
      - serializedVersion: 2
        time: 4.9999995
        value: 0.99780506
        inSlope: 0.0014498844
        outSlope: 0.0014498844
        tangentMode: 0
      - serializedVersion: 2
        time: 5.1999993
        value: 0.9981049
        inSlope: 0.0015106811
        outSlope: 0.0015106811
        tangentMode: 0
      - serializedVersion: 2
        time: 5.399999
        value: 0.99840933
        inSlope: 0.0015008464
        outSlope: 0.0015008464
        tangentMode: 0
      - serializedVersion: 2
        time: 5.599999
        value: 0.9987052
        inSlope: 0.0014300658
        outSlope: 0.0014300658
        tangentMode: 0
      - serializedVersion: 2
        time: 5.7999988
        value: 0.99898136
        inSlope: 0.0013095152
        outSlope: 0.0013095152
        tangentMode: 0
      - serializedVersion: 2
        time: 5.9999986
        value: 0.999229
        inSlope: 0.001152308
        outSlope: 0.001152308
        tangentMode: 0
      - serializedVersion: 2
        time: 6.1999984
        value: 0.9994423
        inSlope: 0.0009721527
        outSlope: 0.0009721527
        tangentMode: 0
      - serializedVersion: 2
        time: 6.399998
        value: 0.9996179
        inSlope: 0.00078216265
        outSlope: 0.00078216265
        tangentMode: 0
      - serializedVersion: 2
        time: 6.599998
        value: 0.99975514
        inSlope: 0.0005956
        outSlope: 0.0005956
        tangentMode: 0
      - serializedVersion: 2
        time: 6.799998
        value: 0.9998561
        inSlope: 0.00042393844
        outSlope: 0.00042393844
        tangentMode: 0
      - serializedVersion: 2
        time: 6.9999976
        value: 0.9999247
        inSlope: 0.0002762678
        outSlope: 0.0002762678
        tangentMode: 0
      - serializedVersion: 2
        time: 7.1999974
        value: 0.9999666
        inSlope: 0.0001597406
        outSlope: 0.0001597406
        tangentMode: 0
      - serializedVersion: 2
        time: 7.399997
        value: 0.9999886
        inSlope: 0.0000773371
        outSlope: 0.0000773371
        tangentMode: 0
      - serializedVersion: 2
        time: 7.599997
        value: 0.99999756
        inSlope: 0.00002801421
        outSlope: 0.00002801421
        tangentMode: 0
      - serializedVersion: 2
        time: 7.799997
        value: 0.9999998
        inSlope: 0.000006109482
        outSlope: 0.000006109482
        tangentMode: 0
      - serializedVersion: 2
        time: 7.9999967
        value: 1
        inSlope: -0.000040084065
        outSlope: -0.000040084065
        tangentMode: 0
      - serializedVersion: 2
        time: 8.199997
        value: 0.9999838
        inSlope: -0.0006045406
        outSlope: -0.0006045406
        tangentMode: 0
      - serializedVersion: 2
        time: 8.399997
        value: 0.9997582
        inSlope: -0.00280455
        outSlope: -0.00280455
        tangentMode: 0
      - serializedVersion: 2
        time: 8.599997
        value: 0.99886197
        inSlope: -0.007730581
        outSlope: -0.007730581
        tangentMode: 0
      - serializedVersion: 2
        time: 8.799996
        value: 0.99666595
        inSlope: -0.01595588
        outSlope: -0.01595588
        tangentMode: 0
      - serializedVersion: 2
        time: 8.999996
        value: 0.9924796
        inSlope: -0.027553018
        outSlope: -0.027553018
        tangentMode: 0
      - serializedVersion: 2
        time: 9.199996
        value: 0.98564476
        inSlope: -0.042158406
        outSlope: -0.042158406
        tangentMode: 0
      - serializedVersion: 2
        time: 9.399996
        value: 0.9756163
        inSlope: -0.059041888
        outSlope: -0.059041888
        tangentMode: 0
      - serializedVersion: 2
        time: 9.599996
        value: 0.962028
        inSlope: -0.07718541
        outSlope: -0.07718541
        tangentMode: 0
      - serializedVersion: 2
        time: 9.799995
        value: 0.94474214
        inSlope: -0.095370054
        outSlope: -0.095370054
        tangentMode: 0
      - serializedVersion: 2
        time: 9.999995
        value: 0.92388004
        inSlope: -0.11226888
        outSlope: -0.11226888
        tangentMode: 0
      - serializedVersion: 2
        time: 10.199995
        value: 0.89983463
        inSlope: -0.12654227
        outSlope: -0.12654227
        tangentMode: 0
      - serializedVersion: 2
        time: 10.399995
        value: 0.8732632
        inSlope: -0.13692571
        outSlope: -0.13692571
        tangentMode: 0
      - serializedVersion: 2
        time: 10.599995
        value: 0.8450644
        inSlope: -0.14230801
        outSlope: -0.14230801
        tangentMode: 0
      - serializedVersion: 2
        time: 10.799994
        value: 0.81634
        inSlope: -0.14179303
        outSlope: -0.14179303
        tangentMode: 0
      - serializedVersion: 2
        time: 10.999994
        value: 0.78834724
        inSlope: -0.13474193
        outSlope: -0.13474193
        tangentMode: 0
      - serializedVersion: 2
        time: 11.199994
        value: 0.7624433
        inSlope: -0.12079816
        outSlope: -0.12079816
        tangentMode: 0
      - serializedVersion: 2
        time: 11.399994
        value: 0.740028
        inSlope: -0.099895686
        outSlope: -0.099895686
        tangentMode: 0
      - serializedVersion: 2
        time: 11.599994
        value: 0.72248507
        inSlope: -0.072265334
        outSlope: -0.072265334
        tangentMode: 0
      - serializedVersion: 2
        time: 11.7999935
        value: 0.7111219
        inSlope: -0.038445443
        outSlope: -0.038445443
        tangentMode: 0
      - serializedVersion: 2
        time: 12
        value: 0.70710677
        inSlope: -0.020075088
        outSlope: -0.020075088
        tangentMode: 0
      m_PreInfinity: 2
      m_PostInfinity: 2
      m_RotationOrder: 4
    attribute: m_LocalRotation.w
    path: 
    classID: 4
    script: {fileID: 0}
  m_EulerEditorCurves:
  - curve:
      serializedVersion: 2
      m_Curve:
      - serializedVersion: 2
        time: 0
        value: 0
        inSlope: 0
        outSlope: 0
        tangentMode: 136
      - serializedVersion: 2
        time: 4
        value: 0
        inSlope: 0
        outSlope: 0
        tangentMode: 136
      - serializedVersion: 2
        time: 8
        value: 0
        inSlope: 0
        outSlope: 0
        tangentMode: 136
      - serializedVersion: 2
        time: 12
        value: 90
        inSlope: 0
        outSlope: 0
        tangentMode: 136
      m_PreInfinity: 2
      m_PostInfinity: 2
      m_RotationOrder: 4
    attribute: localEulerAnglesBaked.x
    path: 
    classID: 4
    script: {fileID: 0}
  - curve:
      serializedVersion: 2
      m_Curve:
      - serializedVersion: 2
        time: 0
        value: 0
        inSlope: 0
        outSlope: 0
        tangentMode: 136
      - serializedVersion: 2
        time: 4
        value: 9
        inSlope: 0
        outSlope: 0
        tangentMode: 136
      - serializedVersion: 2
        time: 8
        value: 0
        inSlope: 0
        outSlope: 0
        tangentMode: 136
      - serializedVersion: 2
        time: 12
        value: 0
        inSlope: 0
        outSlope: 0
        tangentMode: 136
      m_PreInfinity: 2
      m_PostInfinity: 2
      m_RotationOrder: 4
    attribute: localEulerAnglesBaked.y
    path: 
    classID: 4
    script: {fileID: 0}
  - curve:
      serializedVersion: 2
      m_Curve:
      - serializedVersion: 2
        time: 0
        value: 0
        inSlope: 0
        outSlope: 0
        tangentMode: 136
      - serializedVersion: 2
        time: 4
        value: 0
        inSlope: 0
        outSlope: 0
        tangentMode: 136
      - serializedVersion: 2
        time: 8
        value: 0
        inSlope: 0
        outSlope: 0
        tangentMode: 136
      - serializedVersion: 2
        time: 12
        value: 0
        inSlope: 0
        outSlope: 0
        tangentMode: 136
      m_PreInfinity: 2
      m_PostInfinity: 2
      m_RotationOrder: 4
    attribute: localEulerAnglesBaked.z
    path: 
    classID: 4
    script: {fileID: 0}
  m_HasGenericRootTransform: 0
  m_HasMotionFloatCurves: 0
  m_GenerateMotionCurves: 0
  m_Events: []
